{
    "$connections": {
        "value": {
            "sql": {
                "connectionId": "/subscriptions/043e798d-87c4-4cd5-b2ab-a97d43fa734e/resourceGroups/bsc-dev/providers/Microsoft.Web/connections/sql",
                "connectionName": "sql",
                "id": "/subscriptions/043e798d-87c4-4cd5-b2ab-a97d43fa734e/providers/Microsoft.Web/locations/westeurope/managedApis/sql"
            },
            "sql_1": {
                "connectionId": "/subscriptions/043e798d-87c4-4cd5-b2ab-a97d43fa734e/resourceGroups/bsc-dev/providers/Microsoft.Web/connections/sql-1",
                "connectionName": "sql-1",
                "id": "/subscriptions/043e798d-87c4-4cd5-b2ab-a97d43fa734e/providers/Microsoft.Web/locations/westeurope/managedApis/sql"
            }
        }
    },
    "definition": {
        "$schema": "https://schema.management.azure.com/providers/Microsoft.Logic/schemas/2016-06-01/workflowdefinition.json#",
        "actions": {
            "Antwort": {
                "inputs": {
                    "body": {
                        "fulfillmentText": "@{body('Parse_JSON')?['queryResult']?['fulfillmentText']} Zur auswahl stehen @{variables('outputInformation')} "
                    },
                    "headers": {
                        "Content-Type": "application/json"
                    },
                    "statusCode": 200
                },
                "kind": "Http",
                "runAfter": {
                    "For_each_3": [
                        "Succeeded"
                    ]
                },
                "type": "Response"
            },
            "Compose": {
                "inputs": "@triggerBody()",
                "runAfter": {
                    "Initialize_variable_devicePrice": [
                        "Succeeded"
                    ]
                },
                "type": "Compose"
            },
            "For_each_3": {
                "actions": {
                    "Append_List_Items": {
                        "inputs": {
                            "name": "outputInformation",
                            "value": "@{items('For_each_3')?['Color']}@{items('For_each_3')?['Capacity']} "
                        },
                        "runAfter": {},
                        "type": "AppendToStringVariable"
                    }
                },
                "foreach": "@body('JSON_analysieren')?['ResultSets']?['Table1']",
                "runAfter": {
                    "JSON_analysieren": [
                        "Succeeded"
                    ]
                },
                "type": "Foreach"
            },
            "Initialize_variable": {
                "inputs": {
                    "variables": [
                        {
                            "name": "outputInformation",
                            "type": "String"
                        }
                    ]
                },
                "runAfter": {},
                "type": "InitializeVariable"
            },
            "Initialize_variable_2": {
                "inputs": {
                    "variables": [
                        {
                            "name": "counter",
                            "type": "Integer"
                        }
                    ]
                },
                "runAfter": {
                    "Initialize_variable": [
                        "Succeeded"
                    ]
                },
                "type": "InitializeVariable"
            },
            "Initialize_variable_deviceCapacity": {
                "inputs": {
                    "variables": [
                        {
                            "name": "deviceCapacity",
                            "type": "String"
                        }
                    ]
                },
                "runAfter": {
                    "Initialize_variable_deviceColor": [
                        "Succeeded"
                    ]
                },
                "type": "InitializeVariable"
            },
            "Initialize_variable_deviceColor": {
                "inputs": {
                    "variables": [
                        {
                            "name": "deviceColor",
                            "type": "String"
                        }
                    ]
                },
                "runAfter": {
                    "Initialize_variable_deviceType": [
                        "Succeeded"
                    ]
                },
                "type": "InitializeVariable"
            },
            "Initialize_variable_deviceDisplaySize": {
                "inputs": {
                    "variables": [
                        {
                            "name": "deviceDisplaySize",
                            "type": "String"
                        }
                    ]
                },
                "runAfter": {
                    "Initialize_variable_deviceName": [
                        "Succeeded"
                    ]
                },
                "type": "InitializeVariable"
            },
            "Initialize_variable_deviceName": {
                "inputs": {
                    "variables": [
                        {
                            "name": "deviceName",
                            "type": "String"
                        }
                    ]
                },
                "runAfter": {
                    "Initialize_variable_deviceCapacity": [
                        "Succeeded"
                    ]
                },
                "type": "InitializeVariable"
            },
            "Initialize_variable_devicePrice": {
                "inputs": {
                    "variables": [
                        {
                            "name": "devicePrice",
                            "type": "String"
                        }
                    ]
                },
                "runAfter": {
                    "Initialize_variable_deviceDisplaySize": [
                        "Succeeded"
                    ]
                },
                "type": "InitializeVariable"
            },
            "Initialize_variable_deviceType": {
                "inputs": {
                    "variables": [
                        {
                            "name": "deviceType",
                            "type": "String"
                        }
                    ]
                },
                "runAfter": {
                    "Variable_initialisieren": [
                        "Succeeded"
                    ]
                },
                "type": "InitializeVariable"
            },
            "JSON_analysieren": {
                "inputs": {
                    "content": "@{body('color')}@{body('capacity')}",
                    "schema": {
                        "properties": {
                            "OutputParameters": {
                                "properties": {},
                                "type": "object"
                            },
                            "ResultSets": {
                                "properties": {
                                    "Table1": {
                                        "items": {
                                            "properties": {
                                                "Capacity": {
                                                    "type": "string"
                                                },
                                                "Color": {
                                                    "type": "string"
                                                }
                                            },
                                            "type": "object"
                                        },
                                        "type": "array"
                                    }
                                },
                                "type": "object"
                            }
                        },
                        "type": "object"
                    }
                },
                "runAfter": {
                    "buy.iphone": [
                        "Succeeded"
                    ],
                    "buy.macbook": [
                        "Succeeded"
                    ]
                },
                "type": "ParseJson"
            },
            "Parse_JSON": {
                "inputs": {
                    "content": "@outputs('Compose')",
                    "schema": {
                        "properties": {
                            "originalDetectIntentRequest": {
                                "properties": {
                                    "payload": {
                                        "properties": {},
                                        "type": "object"
                                    }
                                },
                                "type": "object"
                            },
                            "queryResult": {
                                "properties": {
                                    "fulfillmentMessages": {
                                        "items": {
                                            "properties": {
                                                "text": {
                                                    "properties": {
                                                        "text": {
                                                            "items": {
                                                                "type": "string"
                                                            },
                                                            "type": "array"
                                                        }
                                                    },
                                                    "type": "object"
                                                }
                                            },
                                            "required": [
                                                "text"
                                            ],
                                            "type": "object"
                                        },
                                        "type": "array"
                                    },
                                    "fulfillmentText": {
                                        "type": "string"
                                    },
                                    "intent": {
                                        "properties": {
                                            "displayName": {
                                                "type": "string"
                                            },
                                            "name": {
                                                "type": "string"
                                            }
                                        },
                                        "type": "object"
                                    },
                                    "intentDetectionConfidence": {
                                        "type": "number"
                                    },
                                    "languageCode": {
                                        "type": "string"
                                    },
                                    "outputContexts": {
                                        "items": {
                                            "properties": {
                                                "lifespanCount": {
                                                    "type": "integer"
                                                },
                                                "name": {
                                                    "type": "string"
                                                },
                                                "parameters": {
                                                    "properties": {
                                                        "DeviceCapacity": {
                                                            "type": "string"
                                                        },
                                                        "DeviceCapacity.original": {
                                                            "type": "string"
                                                        },
                                                        "DeviceColor": {
                                                            "type": "string"
                                                        },
                                                        "DeviceColor.original": {
                                                            "type": "string"
                                                        },
                                                        "DeviceDisplaySize": {
                                                            "type": "string"
                                                        },
                                                        "DeviceDisplaySize.original": {
                                                            "type": "string"
                                                        },
                                                        "DeviceName": {
                                                            "type": "string"
                                                        },
                                                        "DeviceName.original": {
                                                            "type": "string"
                                                        },
                                                        "DeviceType": {
                                                            "type": "string"
                                                        },
                                                        "DeviceType.original": {
                                                            "type": "string"
                                                        },
                                                        "unit-currency": {
                                                            "properties": {
                                                                "amount": {
                                                                    "type": "number"
                                                                },
                                                                "currency": {
                                                                    "type": "string"
                                                                }
                                                            },
                                                            "type": "object"
                                                        },
                                                        "unit-currency.original": {
                                                            "type": "string"
                                                        }
                                                    },
                                                    "type": "object"
                                                }
                                            },
                                            "required": [
                                                "name",
                                                "lifespanCount",
                                                "parameters"
                                            ],
                                            "type": "object"
                                        },
                                        "type": "array"
                                    },
                                    "parameters": {
                                        "properties": {
                                            "DeviceCapacity": {
                                                "type": "string"
                                            },
                                            "DeviceColor": {
                                                "type": "string"
                                            },
                                            "DeviceDisplaySize": {
                                                "type": "string"
                                            },
                                            "DeviceName": {
                                                "type": "string"
                                            },
                                            "DeviceType": {
                                                "type": "string"
                                            },
                                            "unit-currency": {
                                                "properties": {
                                                    "amount": {
                                                        "type": "number"
                                                    },
                                                    "currency": {
                                                        "type": "string"
                                                    }
                                                },
                                                "type": "object"
                                            }
                                        },
                                        "type": "object"
                                    },
                                    "queryText": {
                                        "type": "string"
                                    }
                                },
                                "type": "object"
                            },
                            "responseId": {
                                "type": "string"
                            },
                            "session": {
                                "type": "string"
                            }
                        },
                        "type": "object"
                    }
                },
                "runAfter": {
                    "Compose": [
                        "Succeeded"
                    ]
                },
                "type": "ParseJson"
            },
            "Variable_initialisieren": {
                "inputs": {
                    "variables": [
                        {
                            "name": "SQLFilter",
                            "type": "String"
                        }
                    ]
                },
                "runAfter": {
                    "Initialize_variable_2": [
                        "Succeeded"
                    ]
                },
                "type": "InitializeVariable"
            },
            "buy.iphone": {
                "actions": {
                    "Switch": {
                        "cases": {
                            "capacity": {
                                "actions": {
                                    "capacity": {
                                        "inputs": {
                                            "body": {
                                                "query": "SELECT DISTINCT Capacity FROM iPhone WHERE @{variables('SQLFilter')}"
                                            },
                                            "host": {
                                                "connection": {
                                                    "name": "@parameters('$connections')['sql_1']['connectionId']"
                                                }
                                            },
                                            "method": "post",
                                            "path": "/datasets/default/query/sql"
                                        },
                                        "runAfter": {},
                                        "type": "ApiConnection"
                                    }
                                },
                                "case": "Wie viel Speicherplatz soll das Gerät haben?"
                            },
                            "color": {
                                "actions": {
                                    "color": {
                                        "inputs": {
                                            "body": {
                                                "query": "SELECT DISTINCT Color FROM iPhone WHERE @{variables('SQLFilter')}"
                                            },
                                            "host": {
                                                "connection": {
                                                    "name": "@parameters('$connections')['sql_1']['connectionId']"
                                                }
                                            },
                                            "method": "post",
                                            "path": "/datasets/default/query/sql"
                                        },
                                        "runAfter": {},
                                        "type": "ApiConnection"
                                    }
                                },
                                "case": "Welche Farbe soll das Gerät haben?"
                            }
                        },
                        "default": {
                            "actions": {}
                        },
                        "expression": "@body('Parse_JSON')?['queryResult']?['fulfillmentText']",
                        "runAfter": {
                            "createFilterString": [
                                "Succeeded"
                            ]
                        },
                        "type": "Switch"
                    },
                    "createFilterString": {
                        "actions": {
                            "Append_to_string_variable_14": {
                                "inputs": {
                                    "name": "SQLFilter",
                                    "value": "1 = 1"
                                },
                                "runAfter": {
                                    "Condition_DeviceDisplaySize": [
                                        "Succeeded"
                                    ]
                                },
                                "type": "AppendToStringVariable"
                            },
                            "Condition_DeviceDisplaySize": {
                                "actions": {
                                    "Append_to_string_variable_8": {
                                        "inputs": {
                                            "name": "SQLFilter",
                                            "value": "iPhone_Display.Size = '@{variables('deviceDisplaySize')}' AND "
                                        },
                                        "runAfter": {},
                                        "type": "AppendToStringVariable"
                                    }
                                },
                                "else": {
                                    "actions": {
                                        "Append_to_string_variable_13": {
                                            "inputs": {
                                                "name": "SQLFilter",
                                                "value": "1 = 1 AND "
                                            },
                                            "runAfter": {},
                                            "type": "AppendToStringVariable"
                                        }
                                    }
                                },
                                "expression": {
                                    "and": [
                                        {
                                            "not": {
                                                "equals": [
                                                    "@variables('deviceDisplaySize')",
                                                    ""
                                                ]
                                            }
                                        }
                                    ]
                                },
                                "runAfter": {
                                    "Condition_deviceName": [
                                        "Succeeded"
                                    ]
                                },
                                "type": "If"
                            },
                            "Condition_deviceCapacity": {
                                "actions": {
                                    "Append_to_string_variable_6": {
                                        "inputs": {
                                            "name": "SQLFilter",
                                            "value": "Capacity = '@{variables('deviceCapacity')}' AND "
                                        },
                                        "runAfter": {},
                                        "type": "AppendToStringVariable"
                                    }
                                },
                                "else": {
                                    "actions": {
                                        "Append_to_string_variable_11": {
                                            "inputs": {
                                                "name": "SQLFilter",
                                                "value": "1 = 1 AND "
                                            },
                                            "runAfter": {},
                                            "type": "AppendToStringVariable"
                                        }
                                    }
                                },
                                "expression": {
                                    "and": [
                                        {
                                            "not": {
                                                "equals": [
                                                    "@variables('deviceCapacity')",
                                                    ""
                                                ]
                                            }
                                        }
                                    ]
                                },
                                "runAfter": {
                                    "Condition_deviceColor": [
                                        "Succeeded"
                                    ]
                                },
                                "type": "If"
                            },
                            "Condition_deviceColor": {
                                "actions": {
                                    "Append_to_string_variable_5": {
                                        "inputs": {
                                            "name": "SQLFilter",
                                            "value": "Color = '@{variables('deviceColor')}' AND "
                                        },
                                        "runAfter": {},
                                        "type": "AppendToStringVariable"
                                    }
                                },
                                "else": {
                                    "actions": {
                                        "Append_to_string_variable_10": {
                                            "inputs": {
                                                "name": "SQLFilter",
                                                "value": "1 = 1 AND "
                                            },
                                            "runAfter": {},
                                            "type": "AppendToStringVariable"
                                        }
                                    }
                                },
                                "expression": {
                                    "and": [
                                        {
                                            "not": {
                                                "equals": [
                                                    "@variables('deviceColor')",
                                                    ""
                                                ]
                                            }
                                        }
                                    ]
                                },
                                "runAfter": {
                                    "Condition_devicePrice": [
                                        "Succeeded"
                                    ]
                                },
                                "type": "If"
                            },
                            "Condition_deviceName": {
                                "actions": {
                                    "Append_to_string_variable_7": {
                                        "inputs": {
                                            "name": "SQLFilter",
                                            "value": "Name = '@{variables('deviceName')}' AND "
                                        },
                                        "runAfter": {},
                                        "type": "AppendToStringVariable"
                                    }
                                },
                                "else": {
                                    "actions": {
                                        "Append_to_string_variable_12": {
                                            "inputs": {
                                                "name": "SQLFilter",
                                                "value": "1 = 1 AND "
                                            },
                                            "runAfter": {},
                                            "type": "AppendToStringVariable"
                                        }
                                    }
                                },
                                "expression": {
                                    "and": [
                                        {
                                            "not": {
                                                "equals": [
                                                    "@variables('deviceName')",
                                                    ""
                                                ]
                                            }
                                        }
                                    ]
                                },
                                "runAfter": {
                                    "Condition_deviceCapacity": [
                                        "Succeeded"
                                    ]
                                },
                                "type": "If"
                            },
                            "Condition_devicePrice": {
                                "actions": {
                                    "Append_to_string_variable_4": {
                                        "inputs": {
                                            "name": "SQLFilter",
                                            "value": "Price <= '@{variables('devicePrice')}' AND "
                                        },
                                        "runAfter": {},
                                        "type": "AppendToStringVariable"
                                    }
                                },
                                "else": {
                                    "actions": {
                                        "Append_to_string_variable_9": {
                                            "inputs": {
                                                "name": "SQLFilter",
                                                "value": "1 = 1 AND "
                                            },
                                            "runAfter": {},
                                            "type": "AppendToStringVariable"
                                        }
                                    }
                                },
                                "expression": {
                                    "and": [
                                        {
                                            "not": {
                                                "equals": [
                                                    "@variables('devicePrice')",
                                                    ""
                                                ]
                                            }
                                        }
                                    ]
                                },
                                "runAfter": {},
                                "type": "If"
                            }
                        },
                        "runAfter": {
                            "setVariable": [
                                "Succeeded"
                            ]
                        },
                        "type": "Scope"
                    },
                    "setVariable": {
                        "actions": {
                            "Set_variable_deviceCapacity": {
                                "inputs": {
                                    "name": "deviceCapacity",
                                    "value": "@body('Parse_JSON')?['queryResult']?['parameters']?['DeviceCapacity']"
                                },
                                "runAfter": {
                                    "Set_variable_deviceColor": [
                                        "Succeeded"
                                    ]
                                },
                                "type": "SetVariable"
                            },
                            "Set_variable_deviceColor": {
                                "inputs": {
                                    "name": "deviceColor",
                                    "value": "@body('Parse_JSON')?['queryResult']?['parameters']?['DeviceColor']"
                                },
                                "runAfter": {},
                                "type": "SetVariable"
                            },
                            "Set_variable_deviceDisplaySize": {
                                "inputs": {
                                    "name": "deviceDisplaySize",
                                    "value": "@body('Parse_JSON')?['queryResult']?['parameters']?['DeviceDisplaySize']"
                                },
                                "runAfter": {
                                    "Set_variable_deviceName": [
                                        "Succeeded"
                                    ]
                                },
                                "type": "SetVariable"
                            },
                            "Set_variable_deviceName": {
                                "inputs": {
                                    "name": "deviceName",
                                    "value": "@body('Parse_JSON')?['queryResult']?['parameters']?['DeviceName']"
                                },
                                "runAfter": {
                                    "Set_variable_deviceCapacity": [
                                        "Succeeded"
                                    ]
                                },
                                "type": "SetVariable"
                            },
                            "Set_variable_devicePrice": {
                                "inputs": {
                                    "name": "devicePrice",
                                    "value": "@{body('Parse_JSON')?['queryResult']?['parameters']?['unit-currency']?['amount']}"
                                },
                                "runAfter": {
                                    "Set_variable_deviceDisplaySize": [
                                        "Succeeded"
                                    ]
                                },
                                "type": "SetVariable"
                            }
                        },
                        "runAfter": {},
                        "type": "Scope"
                    }
                },
                "expression": {
                    "and": [
                        {
                            "equals": [
                                "@body('Parse_JSON')?['queryResult']?['intent']?['displayName']",
                                "buy.iphone"
                            ]
                        }
                    ]
                },
                "runAfter": {
                    "Parse_JSON": [
                        "Succeeded"
                    ]
                },
                "type": "If"
            },
            "buy.macbook": {
                "actions": {
                    "Condition_2": {
                        "actions": {
                            "Execute_a_SQL_query": {
                                "inputs": {
                                    "body": {
                                        "query": "SELECT DISTINCT Price FROM test"
                                    },
                                    "host": {
                                        "connection": {
                                            "name": "@parameters('$connections')['sql']['connectionId']"
                                        }
                                    },
                                    "method": "post",
                                    "path": "/datasets/default/query/sql"
                                },
                                "runAfter": {},
                                "type": "ApiConnection"
                            },
                            "For_each": {
                                "actions": {
                                    "Condition": {
                                        "actions": {
                                            "Append_to_string_variable_2": {
                                                "inputs": {
                                                    "name": "outputInformation",
                                                    "value": "und "
                                                },
                                                "runAfter": {
                                                    "Append_to_string_variable_3": [
                                                        "Succeeded"
                                                    ]
                                                },
                                                "type": "AppendToStringVariable"
                                            },
                                            "Append_to_string_variable_3": {
                                                "inputs": {
                                                    "name": "outputInformation",
                                                    "value": "@{items('For_each')?['Price']} "
                                                },
                                                "runAfter": {},
                                                "type": "AppendToStringVariable"
                                            }
                                        },
                                        "else": {
                                            "actions": {
                                                "Append_to_string_variable": {
                                                    "inputs": {
                                                        "name": "outputInformation",
                                                        "value": "@{items('For_each')?['Price']} "
                                                    },
                                                    "runAfter": {},
                                                    "type": "AppendToStringVariable"
                                                }
                                            }
                                        },
                                        "expression": {
                                            "and": [
                                                {
                                                    "equals": [
                                                        "@variables('counter')",
                                                        1
                                                    ]
                                                }
                                            ]
                                        },
                                        "runAfter": {
                                            "Decrement_variable": [
                                                "Succeeded"
                                            ]
                                        },
                                        "type": "If"
                                    },
                                    "Decrement_variable": {
                                        "inputs": {
                                            "name": "counter",
                                            "value": 1
                                        },
                                        "runAfter": {},
                                        "type": "DecrementVariable"
                                    }
                                },
                                "foreach": "@body('Parse_JSON_2')?['ResultSets']?['Table1']",
                                "runAfter": {
                                    "Set_variable": [
                                        "Succeeded"
                                    ]
                                },
                                "type": "Foreach"
                            },
                            "Parse_JSON_2": {
                                "inputs": {
                                    "content": "@body('Execute_a_SQL_query')",
                                    "schema": {
                                        "properties": {
                                            "OutputParameters": {
                                                "properties": {},
                                                "type": "object"
                                            },
                                            "ResultSets": {
                                                "properties": {
                                                    "Table1": {
                                                        "items": {
                                                            "properties": {
                                                                "Price": {
                                                                    "type": "number"
                                                                }
                                                            },
                                                            "required": [
                                                                "Price"
                                                            ],
                                                            "type": "object"
                                                        },
                                                        "type": "array"
                                                    }
                                                },
                                                "type": "object"
                                            }
                                        },
                                        "type": "object"
                                    }
                                },
                                "runAfter": {
                                    "Execute_a_SQL_query": [
                                        "Succeeded"
                                    ]
                                },
                                "type": "ParseJson"
                            },
                            "Response_2": {
                                "inputs": {
                                    "body": {
                                        "fulfillmentText": "@{body('Parse_JSON')['queryResult']['fulfillmentText']} Zur auswahl stehen @{variables('outputInformation')} "
                                    },
                                    "headers": {
                                        "Content-Type": "application/json"
                                    },
                                    "statusCode": 200
                                },
                                "kind": "Http",
                                "runAfter": {
                                    "For_each": [
                                        "Succeeded"
                                    ]
                                },
                                "type": "Response"
                            },
                            "Set_variable": {
                                "inputs": {
                                    "name": "counter",
                                    "value": "@length(body('Execute_a_SQL_query')?['resultsets']?['Table1'])"
                                },
                                "runAfter": {
                                    "Parse_JSON_2": [
                                        "Succeeded"
                                    ]
                                },
                                "type": "SetVariable"
                            }
                        },
                        "expression": {
                            "and": [
                                {
                                    "contains": [
                                        "@body('Parse_JSON')?['queryResult']?['fulfillmentText']",
                                        "Display"
                                    ]
                                }
                            ]
                        },
                        "runAfter": {},
                        "type": "If"
                    }
                },
                "expression": {
                    "and": [
                        {
                            "equals": [
                                "@body('Parse_JSON')?['queryResult']?['intent']?['displayName']",
                                "buy.macbook"
                            ]
                        }
                    ]
                },
                "runAfter": {
                    "Parse_JSON": [
                        "Succeeded"
                    ]
                },
                "type": "If"
            }
        },
        "contentVersion": "1.0.0.0",
        "outputs": {},
        "parameters": {
            "$connections": {
                "defaultValue": {},
                "type": "Object"
            }
        },
        "triggers": {
            "request": {
                "inputs": {
                    "method": "POST",
                    "schema": {}
                },
                "kind": "Http",
                "type": "Request"
            }
        }
    }
}