{
  "id": "78c8deb6-a81a-4732-a911-d1c58c3e1fb9",
  "parentId": "8e9abc2b-b1a6-40eb-bd30-c510853f411e",
  "rootParentId": "8e9abc2b-b1a6-40eb-bd30-c510853f411e",
  "name": "buy.iPad - cancel",
  "auto": true,
  "contexts": [
    "buyiPad-followup"
  ],
  "responses": [
    {
      "resetContexts": false,
      "action": "buyiPad.buyiPad-cancel",
      "affectedContexts": [],
      "parameters": [],
      "messages": [
        {
          "type": 0,
          "lang": "de",
          "speech": "Alles klar. Gehen wir auf Anfang."
        }
      ],
      "defaultResponsePlatforms": {},
      "speech": []
    }
  ],
  "priority": 750000,
  "webhookUsed": false,
  "webhookForSlotFilling": false,
  "lastUpdate": 1551103107,
  "fallbackIntent": false,
  "events": []
}