[
  {
    "id": "023c9905-bcd7-4c5c-a106-23f0f01eb443",
    "data": [
      {
        "text": "Ich ",
        "userDefined": false
      },
      {
        "text": "suche",
        "meta": "@sys.ignore",
        "userDefined": false
      },
      {
        "text": " ",
        "userDefined": false
      },
      {
        "text": "ein",
        "meta": "@sys.ignore",
        "userDefined": false
      },
      {
        "text": " ",
        "userDefined": false
      },
      {
        "text": "iPad Pro",
        "alias": "DeviceName",
        "meta": "@DeviceNameiPad",
        "userDefined": false
      },
      {
        "text": " mit ",
        "userDefined": false
      },
      {
        "text": "32 GB",
        "alias": "DeviceCapacity",
        "meta": "@DeviceCapacity",
        "userDefined": false
      },
      {
        "text": " ",
        "userDefined": false
      },
      {
        "text": "speicherplatz",
        "meta": "@sys.ignore",
        "userDefined": false
      },
      {
        "text": " in ",
        "userDefined": false
      },
      {
        "text": "Silber",
        "alias": "DeviceColor",
        "meta": "@DeviceColor",
        "userDefined": false
      }
    ],
    "isTemplate": false,
    "count": 0
  },
  {
    "id": "55a137d0-d248-4d84-9047-33062f3b68d8",
    "data": [
      {
        "text": "Ich möchte ",
        "userDefined": false
      },
      {
        "text": "ein",
        "meta": "@sys.ignore",
        "userDefined": false
      },
      {
        "text": " ",
        "userDefined": false
      },
      {
        "text": "goldenes",
        "alias": "DeviceColor",
        "meta": "@DeviceColor",
        "userDefined": false
      },
      {
        "text": " ",
        "userDefined": false
      },
      {
        "text": "iPad",
        "alias": "DeviceType",
        "meta": "@DeviceTypeiPad",
        "userDefined": false
      },
      {
        "text": " ",
        "userDefined": false
      },
      {
        "text": "kaufen",
        "meta": "@sys.ignore",
        "userDefined": false
      }
    ],
    "isTemplate": false,
    "count": 0
  },
  {
    "id": "6e414108-655b-4b26-9241-0e9224bcefec",
    "data": [
      {
        "text": "iPad",
        "alias": "DeviceType",
        "meta": "@DeviceTypeiPad",
        "userDefined": false
      }
    ],
    "isTemplate": false,
    "count": 5,
    "updated": 1550997117
  },
  {
    "id": "8b4ec5d6-26ef-4cf3-809a-69c45b76a965",
    "data": [
      {
        "text": "Cellular+Wifi",
        "alias": "DeviceConnectivity",
        "meta": "@DeviceConnectivity",
        "userDefined": false
      }
    ],
    "isTemplate": false,
    "count": 1,
    "updated": 0
  },
  {
    "id": "5f1d3633-4cfc-44f8-bd23-4bc0980c4757",
    "data": [
      {
        "text": "Ich möchte ",
        "userDefined": false
      },
      {
        "text": "ein",
        "meta": "@sys.ignore",
        "userDefined": false
      },
      {
        "text": " ",
        "userDefined": false
      },
      {
        "text": "iPad",
        "alias": "DeviceType",
        "meta": "@DeviceTypeiPad",
        "userDefined": true
      },
      {
        "text": " kaufen",
        "userDefined": false
      }
    ],
    "isTemplate": false,
    "count": 10,
    "updated": 1550996626
  },
  {
    "id": "dfb79918-e3dc-4ff6-9575-80a0aa3c1a7b",
    "data": [
      {
        "text": "Ich such ",
        "userDefined": false
      },
      {
        "text": "nach einem",
        "meta": "@sys.ignore",
        "userDefined": false
      },
      {
        "text": " ",
        "userDefined": false
      },
      {
        "text": "iPad Mini",
        "alias": "DeviceName",
        "meta": "@DeviceNameiPad",
        "userDefined": false
      }
    ],
    "isTemplate": false,
    "count": 0,
    "updated": 1550997026
  },
  {
    "id": "5ace5047-ea85-4429-b7ce-fcc838c39ca9",
    "data": [
      {
        "text": "Ich suche ",
        "userDefined": false
      },
      {
        "text": "nach einem",
        "meta": "@sys.ignore",
        "userDefined": false
      },
      {
        "text": " ",
        "userDefined": false
      },
      {
        "text": "iPad",
        "alias": "DeviceType",
        "meta": "@DeviceTypeiPad",
        "userDefined": false
      }
    ],
    "isTemplate": false,
    "count": 0,
    "updated": 1550996626
  },
  {
    "id": "319831d0-5454-494d-b2e5-ba51695a2744",
    "data": [
      {
        "text": "Ich würde gerne ",
        "userDefined": false
      },
      {
        "text": "ein",
        "meta": "@sys.ignore",
        "userDefined": false
      },
      {
        "text": " ",
        "userDefined": false
      },
      {
        "text": "iPad",
        "alias": "DeviceType",
        "meta": "@DeviceTypeiPad",
        "userDefined": false
      },
      {
        "text": " erwerben",
        "userDefined": false
      }
    ],
    "isTemplate": false,
    "count": 0,
    "updated": 1550996626
  },
  {
    "id": "cf707190-4cf0-4f82-93e0-274022a52a40",
    "data": [
      {
        "text": "Verkaufst du ",
        "userDefined": false
      },
      {
        "text": "iPads",
        "alias": "DeviceType",
        "meta": "@DeviceTypeiPad",
        "userDefined": false
      },
      {
        "text": "?",
        "userDefined": false
      }
    ],
    "isTemplate": false,
    "count": 0,
    "updated": 1550996626
  },
  {
    "id": "f47b90b7-44d3-4bb7-993a-2e010bbdb640",
    "data": [
      {
        "text": "Ich brauche ",
        "userDefined": false
      },
      {
        "text": "ein",
        "meta": "@sys.ignore",
        "userDefined": false
      },
      {
        "text": " neues ",
        "userDefined": false
      },
      {
        "text": "iPad",
        "alias": "DeviceType",
        "meta": "@DeviceTypeiPad",
        "userDefined": false
      }
    ],
    "isTemplate": false,
    "count": 0,
    "updated": 1550996626
  },
  {
    "id": "104b0fdc-2851-4309-92ba-9b6976348ab3",
    "data": [
      {
        "text": "ich brauche ",
        "userDefined": false
      },
      {
        "text": "ein",
        "meta": "@sys.ignore",
        "userDefined": false
      },
      {
        "text": " ",
        "userDefined": false
      },
      {
        "text": "iPad",
        "alias": "DeviceType",
        "meta": "@DeviceTypeiPad",
        "userDefined": false
      }
    ],
    "isTemplate": false,
    "count": 0,
    "updated": 1550996626
  },
  {
    "id": "c69a6e67-1ed1-4b7d-91db-c55e32ac3a2e",
    "data": [
      {
        "text": "Kannst du mir ",
        "userDefined": false
      },
      {
        "text": "ein",
        "meta": "@sys.ignore",
        "userDefined": false
      },
      {
        "text": " ",
        "userDefined": false
      },
      {
        "text": "iPad",
        "alias": "DeviceType",
        "meta": "@DeviceTypeiPad",
        "userDefined": false
      },
      {
        "text": " verkaufen",
        "userDefined": false
      }
    ],
    "isTemplate": false,
    "count": 0,
    "updated": 1550996626
  },
  {
    "id": "5fdf1267-b5e4-44f5-819d-7ab815ec0b4c",
    "data": [
      {
        "text": "iPad",
        "alias": "DeviceType",
        "meta": "@DeviceTypeiPad",
        "userDefined": false
      },
      {
        "text": " kaufen",
        "userDefined": false
      }
    ],
    "isTemplate": false,
    "count": 0,
    "updated": 1550996626
  },
  {
    "id": "4e34a0fb-cf96-475d-a2fa-50554a57548d",
    "data": [
      {
        "text": "Hi, ich möchte gerne ",
        "userDefined": false
      },
      {
        "text": "ein",
        "meta": "@sys.ignore",
        "userDefined": false
      },
      {
        "text": " ",
        "userDefined": false
      },
      {
        "text": "iPad",
        "alias": "DeviceType",
        "meta": "@DeviceTypeiPad",
        "userDefined": false
      },
      {
        "text": " kaufen",
        "userDefined": false
      }
    ],
    "isTemplate": false,
    "count": 0,
    "updated": 1550996626
  },
  {
    "id": "25315d0e-29d8-482a-b16c-9fdbd83fa716",
    "data": [
      {
        "text": "Hallo ich möchte gerne ",
        "userDefined": false
      },
      {
        "text": "ein",
        "meta": "@sys.ignore",
        "userDefined": false
      },
      {
        "text": " ",
        "userDefined": false
      },
      {
        "text": "iPad",
        "alias": "DeviceType",
        "meta": "@DeviceTypeiPad",
        "userDefined": false
      },
      {
        "text": " kaufen",
        "userDefined": false
      }
    ],
    "isTemplate": false,
    "count": 0,
    "updated": 1550996626
  },
  {
    "id": "df7c0706-b3f0-4f63-8cf5-b76ce3cfb01c",
    "data": [
      {
        "text": "Ich möchte gerne ",
        "userDefined": false
      },
      {
        "text": "ein",
        "meta": "@sys.ignore",
        "userDefined": false
      },
      {
        "text": " ",
        "userDefined": false
      },
      {
        "text": "iPad",
        "alias": "DeviceType",
        "meta": "@DeviceTypeiPad",
        "userDefined": false
      },
      {
        "text": " kaufen",
        "userDefined": false
      }
    ],
    "isTemplate": false,
    "count": 0,
    "updated": 1550996626
  },
  {
    "id": "7726442d-a316-47a2-8337-d5ad21b4bca2",
    "data": [
      {
        "text": "Ich will ",
        "userDefined": false
      },
      {
        "text": "ein",
        "meta": "@sys.ignore",
        "userDefined": false
      },
      {
        "text": " ",
        "userDefined": false
      },
      {
        "text": "Tablet",
        "alias": "DeviceType",
        "meta": "@DeviceTypeiPad",
        "userDefined": false
      },
      {
        "text": " kaufen",
        "userDefined": false
      }
    ],
    "isTemplate": false,
    "count": 0,
    "updated": 1550996626
  },
  {
    "id": "31567b69-0f42-47c7-a009-936d01ad2ad3",
    "data": [
      {
        "text": "ich will ",
        "userDefined": false
      },
      {
        "text": "ein",
        "meta": "@sys.ignore",
        "userDefined": false
      },
      {
        "text": " ",
        "userDefined": false
      },
      {
        "text": "Tablet",
        "alias": "DeviceType",
        "meta": "@DeviceTypeiPad",
        "userDefined": false
      },
      {
        "text": " erwerben",
        "userDefined": false
      }
    ],
    "isTemplate": false,
    "count": 0,
    "updated": 1550996626
  },
  {
    "id": "827532ea-6045-42d8-9869-ee8bae18ad9b",
    "data": [
      {
        "text": "Ich hätte gerne ",
        "userDefined": false
      },
      {
        "text": "ein",
        "meta": "@sys.ignore",
        "userDefined": false
      },
      {
        "text": " ",
        "userDefined": false
      },
      {
        "text": "iPad",
        "alias": "DeviceType",
        "meta": "@DeviceTypeiPad",
        "userDefined": false
      }
    ],
    "isTemplate": false,
    "count": 0,
    "updated": 1550996626
  },
  {
    "id": "c37c1fef-cc9b-476b-a143-cebee5ea6341",
    "data": [
      {
        "text": "Welche ",
        "userDefined": false
      },
      {
        "text": "iPads",
        "alias": "DeviceType",
        "meta": "@DeviceTypeiPad",
        "userDefined": false
      },
      {
        "text": " kann ich kaufen",
        "userDefined": false
      }
    ],
    "isTemplate": false,
    "count": 0,
    "updated": 1550996626
  },
  {
    "id": "6f5ff3a7-a7a9-4c65-a9d1-9fbb1d3cd3eb",
    "data": [
      {
        "text": "Ich hätte gerne ",
        "userDefined": false
      },
      {
        "text": "ein",
        "meta": "@sys.ignore",
        "userDefined": false
      },
      {
        "text": " ",
        "userDefined": false
      },
      {
        "text": "Silbernes",
        "alias": "DeviceColor",
        "meta": "@DeviceColor",
        "userDefined": false
      },
      {
        "text": " ",
        "userDefined": false
      },
      {
        "text": "iPad",
        "alias": "DeviceType",
        "meta": "@DeviceTypeiPad",
        "userDefined": false
      }
    ],
    "isTemplate": false,
    "count": 0,
    "updated": 1550996626
  },
  {
    "id": "d5ea7e28-6a95-49e6-92a3-7b98a7dfdbf1",
    "data": [
      {
        "text": "ich möchte gerne ",
        "userDefined": false
      },
      {
        "text": "ein",
        "meta": "@sys.ignore",
        "userDefined": false
      },
      {
        "text": " ",
        "userDefined": false
      },
      {
        "text": "Goldenes",
        "alias": "DeviceColor",
        "meta": "@DeviceColor",
        "userDefined": false
      },
      {
        "text": " ",
        "userDefined": false
      },
      {
        "text": "iPad",
        "alias": "DeviceType",
        "meta": "@DeviceTypeiPad",
        "userDefined": false
      },
      {
        "text": " kaufen",
        "userDefined": false
      }
    ],
    "isTemplate": false,
    "count": 0,
    "updated": 1550996626
  },
  {
    "id": "3d15a317-3aad-4932-8b0e-2f6ccb7c6265",
    "data": [
      {
        "text": "ich möchte ",
        "userDefined": false
      },
      {
        "text": "ein",
        "meta": "@sys.ignore",
        "userDefined": false
      },
      {
        "text": " ",
        "userDefined": false
      },
      {
        "text": "Silbernes",
        "alias": "DeviceColor",
        "meta": "@DeviceColor",
        "userDefined": true
      },
      {
        "text": " ",
        "userDefined": false
      },
      {
        "text": "iPad",
        "alias": "DeviceType",
        "meta": "@DeviceTypeiPad",
        "userDefined": false
      },
      {
        "text": " kaufen",
        "userDefined": false
      }
    ],
    "isTemplate": false,
    "count": 0,
    "updated": 1550996626
  },
  {
    "id": "c37d303b-4350-404f-8702-0c425a6ee5c4",
    "data": [
      {
        "text": "ich möchte ",
        "userDefined": false
      },
      {
        "text": "ein",
        "meta": "@sys.ignore",
        "userDefined": false
      },
      {
        "text": " ",
        "userDefined": false
      },
      {
        "text": "iPad",
        "alias": "DeviceType",
        "meta": "@DeviceTypeiPad",
        "userDefined": false
      },
      {
        "text": " mit ",
        "userDefined": false
      },
      {
        "text": "32 GB",
        "alias": "DeviceCapacity",
        "meta": "@DeviceCapacity",
        "userDefined": false
      },
      {
        "text": " Speicherplatz",
        "userDefined": false
      }
    ],
    "isTemplate": false,
    "count": 0,
    "updated": 1550996626
  },
  {
    "id": "0ab70ecf-5603-4b1f-b2b2-016a987b5a89",
    "data": [
      {
        "text": "ich möchte ",
        "userDefined": false
      },
      {
        "text": "ein",
        "meta": "@sys.ignore",
        "userDefined": false
      },
      {
        "text": " ",
        "userDefined": false
      },
      {
        "text": "iPad Pro",
        "alias": "DeviceName",
        "meta": "@DeviceNameiPad",
        "userDefined": false
      }
    ],
    "isTemplate": false,
    "count": 0,
    "updated": 1550997026
  },
  {
    "id": "f5cfd249-c8be-4b24-ac49-d265efc96d62",
    "data": [
      {
        "text": "iPad Mini",
        "alias": "DeviceName",
        "meta": "@DeviceNameiPad",
        "userDefined": false
      }
    ],
    "isTemplate": false,
    "count": 1,
    "updated": 1550997026
  },
  {
    "id": "2100616f-f889-4259-837d-76c5ca545f2f",
    "data": [
      {
        "text": "Ich möchte gerne ",
        "userDefined": false
      },
      {
        "text": "ein",
        "meta": "@sys.ignore",
        "userDefined": false
      },
      {
        "text": " ",
        "userDefined": false
      },
      {
        "text": "Tablet",
        "alias": "DeviceType",
        "meta": "@DeviceTypeiPad",
        "userDefined": false
      },
      {
        "text": " kaufen",
        "userDefined": false
      }
    ],
    "isTemplate": false,
    "count": 0,
    "updated": 1550996626
  },
  {
    "id": "563bc3e0-4ac8-4a3f-b6d9-719579b25e3b",
    "data": [
      {
        "text": "7.9",
        "alias": "DeviceDisplaySize",
        "meta": "@DeviceDisplaySize",
        "userDefined": true
      }
    ],
    "isTemplate": false,
    "count": 0,
    "updated": 1550053698
  },
  {
    "id": "470cbec7-34bb-4d42-9868-5cb878f3043d",
    "data": [
      {
        "text": "9.7",
        "alias": "DeviceDisplaySize",
        "meta": "@DeviceDisplaySize",
        "userDefined": true
      }
    ],
    "isTemplate": false,
    "count": 0,
    "updated": 1550053698
  },
  {
    "id": "8ed7e164-4222-4f02-8f83-492d905a0782",
    "data": [
      {
        "text": "10.5",
        "alias": "DeviceDisplaySize",
        "meta": "@DeviceDisplaySize",
        "userDefined": true
      }
    ],
    "isTemplate": false,
    "count": 0,
    "updated": 1550053698
  },
  {
    "id": "98199720-5b36-4a0e-a375-8affb3fc5772",
    "data": [
      {
        "text": "11",
        "alias": "DeviceDisplaySize",
        "meta": "@DeviceDisplaySize",
        "userDefined": false
      }
    ],
    "isTemplate": false,
    "count": 0,
    "updated": 1550053698
  },
  {
    "id": "dc61dfb6-9266-41ad-a491-c09218746257",
    "data": [
      {
        "text": "12.9",
        "alias": "DeviceDisplaySize",
        "meta": "@DeviceDisplaySize",
        "userDefined": false
      }
    ],
    "isTemplate": false,
    "count": 0,
    "updated": 1550053698
  },
  {
    "id": "39fa16a8-8988-4511-bf6e-6b5b1e1857e6",
    "data": [
      {
        "text": "12.9 Zoll",
        "alias": "DeviceDisplaySize",
        "meta": "@DeviceDisplaySize",
        "userDefined": false
      }
    ],
    "isTemplate": false,
    "count": 0,
    "updated": 1550053698
  },
  {
    "id": "f9d40051-c2f7-4b8b-8359-a5edc7f46ef1",
    "data": [
      {
        "text": "11 Zoll",
        "alias": "DeviceDisplaySize",
        "meta": "@DeviceDisplaySize",
        "userDefined": true
      }
    ],
    "isTemplate": false,
    "count": 0,
    "updated": 1550053698
  },
  {
    "id": "44d595ae-af2d-47ee-8b34-ee6ac7e555b5",
    "data": [
      {
        "text": "10.5 Zoll",
        "alias": "DeviceDisplaySize",
        "meta": "@DeviceDisplaySize",
        "userDefined": true
      }
    ],
    "isTemplate": false,
    "count": 0,
    "updated": 1550053698
  },
  {
    "id": "87f8ce9d-caf2-455f-9d45-5755c5bf5c9a",
    "data": [
      {
        "text": "9.7 Zoll",
        "alias": "DeviceDisplaySize",
        "meta": "@DeviceDisplaySize",
        "userDefined": true
      }
    ],
    "isTemplate": false,
    "count": 0,
    "updated": 1550053698
  },
  {
    "id": "a5fb1598-ed86-4de1-afea-f0a18003cb30",
    "data": [
      {
        "text": "7.9 Zoll",
        "alias": "DeviceDisplaySize",
        "meta": "@DeviceDisplaySize",
        "userDefined": true
      }
    ],
    "isTemplate": false,
    "count": 0,
    "updated": 1550053698
  },
  {
    "id": "724a7c4e-4386-42b3-9d13-f810e100e25e",
    "data": [
      {
        "text": "ich möchte ",
        "userDefined": false
      },
      {
        "text": "ein",
        "meta": "@sys.ignore",
        "userDefined": false
      },
      {
        "text": " ",
        "userDefined": false
      },
      {
        "text": "ipad",
        "alias": "DeviceType",
        "meta": "@DeviceTypeiPad",
        "userDefined": true
      },
      {
        "text": " für ",
        "userDefined": false
      },
      {
        "text": "800 €",
        "alias": "UnitCurrency",
        "meta": "@sys.unit-currency",
        "userDefined": true
      },
      {
        "text": " kaufen",
        "userDefined": false
      }
    ],
    "isTemplate": false,
    "count": 0,
    "updated": 1550996626
  },
  {
    "id": "adde05e4-4605-4196-a5d7-7fae6408c973",
    "data": [
      {
        "text": "ich möchte ",
        "userDefined": false
      },
      {
        "text": "ein",
        "meta": "@sys.ignore",
        "userDefined": false
      },
      {
        "text": " ",
        "userDefined": false
      },
      {
        "text": "silbernes",
        "alias": "DeviceColor",
        "meta": "@DeviceColor",
        "userDefined": true
      },
      {
        "text": " ",
        "userDefined": false
      },
      {
        "text": "iPad Pro",
        "alias": "DeviceName",
        "meta": "@DeviceNameiPad",
        "userDefined": true
      },
      {
        "text": " mit ",
        "userDefined": false
      },
      {
        "text": "10,5 Zoll",
        "alias": "DeviceDisplaySize",
        "meta": "@DeviceDisplaySize",
        "userDefined": true
      },
      {
        "text": " ",
        "userDefined": false
      },
      {
        "text": "display",
        "meta": "@sys.ignore",
        "userDefined": false
      },
      {
        "text": ", ",
        "userDefined": false
      },
      {
        "text": "wifi",
        "alias": "DeviceConnectivity",
        "meta": "@DeviceConnectivity",
        "userDefined": true
      },
      {
        "text": " und ",
        "userDefined": false
      },
      {
        "text": "64 GB",
        "alias": "DeviceCapacity",
        "meta": "@DeviceCapacity",
        "userDefined": false
      },
      {
        "text": " ",
        "userDefined": false
      },
      {
        "text": "Speicherplatz",
        "meta": "@sys.ignore",
        "userDefined": false
      }
    ],
    "isTemplate": false,
    "count": 0,
    "updated": 1550997026
  },
  {
    "id": "4bef4cdf-57af-4934-ac21-ee2fcafb2de5",
    "data": [
      {
        "text": "ich möchte ",
        "userDefined": false
      },
      {
        "text": "ein",
        "meta": "@sys.ignore",
        "userDefined": false
      },
      {
        "text": " ",
        "userDefined": false
      },
      {
        "text": "Tablet",
        "alias": "DeviceType",
        "meta": "@DeviceTypeiPad",
        "userDefined": false
      },
      {
        "text": " kaufen",
        "userDefined": false
      }
    ],
    "isTemplate": false,
    "count": 1,
    "updated": 1550996626
  }
]