[
  {
    "id": "ab7c7102-fcbb-4072-891d-455cf75c003b",
    "data": [
      {
        "text": "schließen",
        "userDefined": false
      }
    ],
    "isTemplate": false,
    "count": 2,
    "updated": 1497436133
  },
  {
    "id": "df50a766-98df-4932-bc79-fc2b889d20dc",
    "data": [
      {
        "text": "anhalten",
        "userDefined": false
      }
    ],
    "isTemplate": false,
    "count": 3,
    "updated": 1497436133
  },
  {
    "id": "7c3a161e-ab1e-442d-a0ca-b915b38c382e",
    "data": [
      {
        "text": "nichts tun",
        "userDefined": false
      }
    ],
    "isTemplate": false,
    "count": 1,
    "updated": 1497436133
  },
  {
    "id": "cbf4c5c8-7f55-462f-a851-593bd63e7823",
    "data": [
      {
        "text": "abbrechen",
        "userDefined": false
      }
    ],
    "isTemplate": false,
    "count": 0,
    "updated": 1497436133
  },
  {
    "id": "fa0a7ec8-91fd-473e-9af4-7701ac41760f",
    "data": [
      {
        "text": "vergiss es",
        "userDefined": false
      }
    ],
    "isTemplate": false,
    "count": 0,
    "updated": 1497436133
  },
  {
    "id": "204168d6-0702-4181-ba25-f7d75fb4515a",
    "data": [
      {
        "text": "stoppen",
        "userDefined": false
      }
    ],
    "isTemplate": false,
    "count": 2,
    "updated": 1497436133
  },
  {
    "id": "fdccfa6a-a78a-4b60-b53e-cb78a7cb66ca",
    "data": [
      {
        "text": "überspringen",
        "userDefined": false
      }
    ],
    "isTemplate": false,
    "count": 0,
    "updated": 1497436133
  },
  {
    "id": "8086c209-c2e6-46cc-90ff-1d286451b35f",
    "data": [
      {
        "text": "schon gut",
        "userDefined": false
      }
    ],
    "isTemplate": false,
    "count": 0,
    "updated": 1497436133
  },
  {
    "id": "3c1a541c-ccc8-4126-8260-d6d0f2317a03",
    "data": [
      {
        "text": "hat sich erledigt",
        "userDefined": false
      }
    ],
    "isTemplate": false,
    "count": 2,
    "updated": 1497436133
  },
  {
    "id": "ce393d08-92de-42b8-bd45-bc1bfdddebff",
    "data": [
      {
        "text": "brich ab",
        "userDefined": false
      }
    ],
    "isTemplate": false,
    "count": 0,
    "updated": 1497436133
  }
]