{
  "id": "f94e6cad-caee-41fc-baab-f41b8c9435fb",
  "name": "buy",
  "auto": true,
  "contexts": [],
  "responses": [
    {
      "resetContexts": false,
      "affectedContexts": [],
      "parameters": [],
      "messages": [
        {
          "type": 0,
          "lang": "de",
          "speech": [
            "Wir haben Macs, iPhones und iPads.",
            "Du kannst Macs, iPhones und iPads kaufen."
          ]
        }
      ],
      "defaultResponsePlatforms": {},
      "speech": []
    }
  ],
  "priority": 1000000,
  "webhookUsed": false,
  "webhookForSlotFilling": false,
  "lastUpdate": 1551102973,
  "fallbackIntent": false,
  "events": []
}