[
  {
    "id": "e4e597da-2db4-4dfb-853c-c072ff1c237d",
    "data": [
      {
        "text": "Darmstadt",
        "alias": "geoCity",
        "meta": "@sys.geo-city",
        "userDefined": false
      }
    ],
    "isTemplate": false,
    "count": 0
  },
  {
    "id": "153c8d83-1307-4f67-b2bc-5fa7f7f8dd1d",
    "data": [
      {
        "text": "64291",
        "alias": "zipCode",
        "meta": "@sys.zip-code",
        "userDefined": true
      }
    ],
    "isTemplate": false,
    "count": 0
  },
  {
    "id": "cdc1724a-77ae-4d61-9dfc-53f6a0f07d29",
    "data": [
      {
        "text": "Ettesterstraße 3",
        "alias": "address",
        "meta": "@sys.address",
        "userDefined": true
      }
    ],
    "isTemplate": false,
    "count": 0
  },
  {
    "id": "6489d88a-6e5a-4ca7-b401-244c33524dff",
    "data": [
      {
        "text": "Ich heiße ",
        "userDefined": false
      },
      {
        "text": "Christian",
        "alias": "givenName",
        "meta": "@GivenName",
        "userDefined": true
      },
      {
        "text": " ",
        "userDefined": false
      },
      {
        "text": "Kunz,",
        "alias": "lastName",
        "meta": "@LastName",
        "userDefined": true
      },
      {
        "text": " Wohne in der ",
        "userDefined": false
      },
      {
        "text": "Ettesterstraße 3",
        "alias": "address",
        "meta": "@sys.address",
        "userDefined": true
      },
      {
        "text": ", ",
        "userDefined": false
      },
      {
        "text": "64291",
        "alias": "zipCode",
        "meta": "@sys.zip-code",
        "userDefined": true
      },
      {
        "text": " ",
        "userDefined": false
      },
      {
        "text": "Darmstadt",
        "alias": "geoCity",
        "meta": "@sys.geo-city",
        "userDefined": true
      },
      {
        "text": " und meine E-Mail Adresse lautet ",
        "userDefined": false
      },
      {
        "text": "Christian.kunz@outlook.de",
        "alias": "email",
        "meta": "@sys.email",
        "userDefined": true
      }
    ],
    "isTemplate": false,
    "count": 0
  },
  {
    "id": "f69b3761-c486-4776-9695-ee91505fb4a7",
    "data": [
      {
        "text": "Christian",
        "alias": "givenName",
        "meta": "@GivenName",
        "userDefined": false
      },
      {
        "text": " ",
        "userDefined": false
      },
      {
        "text": "Kunz",
        "alias": "lastName",
        "meta": "@LastName",
        "userDefined": false
      }
    ],
    "isTemplate": false,
    "count": 0
  },
  {
    "id": "8aff58b1-0d7d-42f5-9896-04cdba4ed4c6",
    "data": [
      {
        "text": "Kunz",
        "alias": "lastName",
        "meta": "@LastName",
        "userDefined": true
      }
    ],
    "isTemplate": false,
    "count": 0,
    "updated": 1550391312
  },
  {
    "id": "9b610c17-f698-43da-adc0-13e60e351ca7",
    "data": [
      {
        "text": "Christian",
        "alias": "givenName",
        "meta": "@GivenName",
        "userDefined": true
      }
    ],
    "isTemplate": false,
    "count": 0,
    "updated": 1550391312
  },
  {
    "id": "c13c594e-db4a-4dee-860e-e4bc51657719",
    "data": [
      {
        "text": "christian.kunz@outlook.de",
        "alias": "email",
        "meta": "@sys.email",
        "userDefined": true
      }
    ],
    "isTemplate": false,
    "count": 0,
    "updated": 1550071952
  },
  {
    "id": "6b43096a-41ee-4391-a119-9078f59a3b14",
    "data": [
      {
        "text": "christian",
        "alias": "givenName",
        "meta": "@GivenName",
        "userDefined": true
      },
      {
        "text": " ",
        "userDefined": false
      },
      {
        "text": "Kunz,",
        "alias": "lastName",
        "meta": "@LastName",
        "userDefined": true
      },
      {
        "text": " ",
        "userDefined": false
      },
      {
        "text": "Ettesterstraße 3",
        "alias": "address",
        "meta": "@sys.address",
        "userDefined": true
      },
      {
        "text": " ",
        "userDefined": false
      },
      {
        "text": "64291",
        "alias": "zipCode",
        "meta": "@sys.zip-code",
        "userDefined": true
      },
      {
        "text": " ",
        "userDefined": false
      },
      {
        "text": "Darmstadt",
        "alias": "geoCity",
        "meta": "@sys.geo-city",
        "userDefined": true
      }
    ],
    "isTemplate": false,
    "count": 0,
    "updated": 1550391312
  }
]