{
  "id": "79f2aae4-c8d5-45d8-a715-1b0805fbb95d",
  "parentId": "a6a37be0-4f77-4334-b191-373ec3317e2b",
  "rootParentId": "59d492fd-054a-4fea-ad9a-c5349791c3df",
  "name": "buy.Mac - yes - nameAddress",
  "auto": true,
  "contexts": [
    "buyMacbook-yes-followup-2",
    "buyMacbook-yes-followup"
  ],
  "responses": [
    {
      "resetContexts": false,
      "action": "buyMacbook.buyMacbook-yes.buyMacbook-yes-custom",
      "affectedContexts": [],
      "parameters": [
        {
          "id": "05ca6cb8-c397-4bdb-806d-d5665c7e2cee",
          "required": true,
          "dataType": "@GivenName",
          "name": "givenName",
          "value": "$givenName",
          "prompts": [
            {
              "lang": "de",
              "value": "Wie lautet dein Vorname?"
            }
          ],
          "isList": false
        },
        {
          "id": "603c1727-5a65-47fc-9678-8d4c0db89181",
          "required": true,
          "dataType": "@LastName",
          "name": "lastName",
          "value": "$lastName",
          "prompts": [
            {
              "lang": "de",
              "value": "Wie heißt du mit Nachnamen?"
            }
          ],
          "isList": false
        },
        {
          "id": "021db6a3-7ab0-4000-9426-ff1f5be9f79a",
          "required": true,
          "dataType": "@sys.address",
          "name": "address",
          "value": "$address",
          "prompts": [
            {
              "lang": "de",
              "value": "Wie lautet der name deiner Straße und Hausnummer?"
            }
          ],
          "isList": false
        },
        {
          "id": "e3dba76c-af37-40b2-9ef5-b616f79b5cd4",
          "required": true,
          "dataType": "@sys.zip-code",
          "name": "zipCode",
          "value": "$zipCode",
          "prompts": [
            {
              "lang": "de",
              "value": "Wie lautet deine Postleitzahl?"
            }
          ],
          "isList": false
        },
        {
          "id": "000e7278-924c-43ce-b430-85f0eec6ad63",
          "required": true,
          "dataType": "@sys.geo-city",
          "name": "geoCity",
          "value": "$geoCity",
          "prompts": [
            {
              "lang": "de",
              "value": "Bitte nenne mir noch den Namen deiner Stadt"
            }
          ],
          "isList": false
        },
        {
          "id": "ece18c32-f3d7-4a82-b09c-65952c642251",
          "required": true,
          "dataType": "@sys.email",
          "name": "email",
          "value": "$email",
          "prompts": [
            {
              "lang": "de",
              "value": "Wie lautet deine E-Mail Adresse?"
            }
          ],
          "isList": false
        }
      ],
      "messages": [
        {
          "type": 0,
          "lang": "de",
          "speech": "Entschuldige, es ist ein Fehler passiert. Bitte probiere es noch einmal."
        }
      ],
      "defaultResponsePlatforms": {},
      "speech": []
    }
  ],
  "priority": 1000000,
  "webhookUsed": true,
  "webhookForSlotFilling": false,
  "lastUpdate": 1551103363,
  "fallbackIntent": false,
  "events": []
}