[
  {
    "id": "f4358a63-87ff-43ef-a4f6-626736f9c31d",
    "data": [
      {
        "text": "schließen",
        "userDefined": false
      }
    ],
    "isTemplate": false,
    "count": 2,
    "updated": 1497436133
  },
  {
    "id": "b23945ee-b6df-4453-abdf-22497163ecea",
    "data": [
      {
        "text": "anhalten",
        "userDefined": false
      }
    ],
    "isTemplate": false,
    "count": 3,
    "updated": 1497436133
  },
  {
    "id": "d9b23801-017f-4108-abfa-f5b2b7411502",
    "data": [
      {
        "text": "nichts tun",
        "userDefined": false
      }
    ],
    "isTemplate": false,
    "count": 1,
    "updated": 1497436133
  },
  {
    "id": "a7e8b9c9-ec7d-4215-b804-1f40a670111d",
    "data": [
      {
        "text": "abbrechen",
        "userDefined": false
      }
    ],
    "isTemplate": false,
    "count": 0,
    "updated": 1497436133
  },
  {
    "id": "530413e6-b08c-4e18-910c-0a68e0304567",
    "data": [
      {
        "text": "vergiss es",
        "userDefined": false
      }
    ],
    "isTemplate": false,
    "count": 0,
    "updated": 1497436133
  },
  {
    "id": "faee5610-4e7d-4575-8bf7-595b44870dac",
    "data": [
      {
        "text": "stoppen",
        "userDefined": false
      }
    ],
    "isTemplate": false,
    "count": 2,
    "updated": 1497436133
  },
  {
    "id": "a74f329a-c5ed-4b85-ace4-2ee2c1ad3f70",
    "data": [
      {
        "text": "überspringen",
        "userDefined": false
      }
    ],
    "isTemplate": false,
    "count": 0,
    "updated": 1497436133
  },
  {
    "id": "bec2ee6b-9c31-48aa-bd32-97d685af9ffa",
    "data": [
      {
        "text": "schon gut",
        "userDefined": false
      }
    ],
    "isTemplate": false,
    "count": 0,
    "updated": 1497436133
  },
  {
    "id": "f9b9efce-0c2f-42c9-bd98-5a98937a09bd",
    "data": [
      {
        "text": "hat sich erledigt",
        "userDefined": false
      }
    ],
    "isTemplate": false,
    "count": 2,
    "updated": 1497436133
  },
  {
    "id": "66cb67d2-a24f-44e4-9722-d06ce1bfae46",
    "data": [
      {
        "text": "brich ab",
        "userDefined": false
      }
    ],
    "isTemplate": false,
    "count": 0,
    "updated": 1497436133
  }
]