[
  {
    "id": "d61d0ce3-92fe-4956-bdfa-8cdc8c55e2ab",
    "data": [
      {
        "text": "ich gehe ins Bett",
        "userDefined": false
      }
    ],
    "isTemplate": false,
    "count": 0,
    "updated": 0
  },
  {
    "id": "4fba09c0-356e-4754-b32f-196892f72847",
    "data": [
      {
        "text": "ich gehe ",
        "userDefined": false
      },
      {
        "text": "schlafen",
        "meta": "@sys.ignore",
        "userDefined": false
      }
    ],
    "isTemplate": false,
    "count": 0,
    "updated": 0
  },
  {
    "id": "18f1e72f-0ae0-4c18-a0af-5beb955545ab",
    "data": [
      {
        "text": "nun gehe ich schlafen",
        "userDefined": false
      }
    ],
    "isTemplate": false,
    "count": 0,
    "updated": 0
  },
  {
    "id": "24afef5a-9c47-434d-ab2a-c0983b04dc36",
    "data": [
      {
        "text": "es ist schon Zeit ins Bett zu gehen",
        "userDefined": false
      }
    ],
    "isTemplate": false,
    "count": 0,
    "updated": 0
  },
  {
    "id": "aedf2fbd-95d1-4173-b5c0-bfbc2012ac8b",
    "data": [
      {
        "text": "ich möchte ",
        "userDefined": false
      },
      {
        "text": "schlafen",
        "meta": "@sys.ignore",
        "userDefined": false
      },
      {
        "text": " ",
        "userDefined": false
      },
      {
        "text": "gehen",
        "meta": "@sys.ignore",
        "userDefined": false
      }
    ],
    "isTemplate": false,
    "count": 0,
    "updated": 0
  },
  {
    "id": "4cd1bec7-528e-4b47-b049-faa7e73205fe",
    "data": [
      {
        "text": "ich muss ",
        "userDefined": false
      },
      {
        "text": "ins",
        "meta": "@sys.ignore",
        "userDefined": false
      },
      {
        "text": " Bett gehen",
        "userDefined": false
      }
    ],
    "isTemplate": false,
    "count": 0,
    "updated": 0
  },
  {
    "id": "e0e4f512-a0f0-4bd7-a67c-3af1e5007f87",
    "data": [
      {
        "text": "ich möchte ",
        "userDefined": false
      },
      {
        "text": "schlafen",
        "meta": "@sys.ignore",
        "userDefined": false
      }
    ],
    "isTemplate": false,
    "count": 0,
    "updated": 0
  },
  {
    "id": "41671f7d-5374-464c-b459-d9fa34146739",
    "data": [
      {
        "text": "ich gehe jetzt schlafen",
        "userDefined": false
      }
    ],
    "isTemplate": false,
    "count": 0,
    "updated": 0
  },
  {
    "id": "ec6c3afe-2619-4129-927a-19dce3a16f42",
    "data": [
      {
        "text": "ich muss ",
        "userDefined": false
      },
      {
        "text": "ins",
        "meta": "@sys.ignore",
        "userDefined": false
      },
      {
        "text": " Bett",
        "userDefined": false
      }
    ],
    "isTemplate": false,
    "count": 0,
    "updated": 0
  },
  {
    "id": "9b97f746-90a6-409e-8272-bc8580306d16",
    "data": [
      {
        "text": "Zeit ",
        "userDefined": false
      },
      {
        "text": "ins",
        "meta": "@sys.ignore",
        "userDefined": false
      },
      {
        "text": " Bett zu gehen",
        "userDefined": false
      }
    ],
    "isTemplate": false,
    "count": 0,
    "updated": 0
  },
  {
    "id": "29a3101e-ed08-4bff-88bd-3de3cb1e67a0",
    "data": [
      {
        "text": "es ist Schlafenszeit",
        "userDefined": false
      }
    ],
    "isTemplate": false,
    "count": 0,
    "updated": 0
  }
]