{
  "id": "e4094710-58a6-45bf-b5b7-3a934d02f738",
  "name": "smalltalk.agent.bad",
  "auto": true,
  "contexts": [],
  "responses": [
    {
      "resetContexts": false,
      "action": "smalltalk.agent.bad",
      "affectedContexts": [],
      "parameters": [],
      "messages": [
        {
          "type": 0,
          "lang": "de",
          "speech": [
            "Ich kann trainiert werden, um nützlicher zu sein. Mein Entwickler wird mich weiter trainieren.",
            "Ich muss etwas Wissen vermissen. Ich werde meinen Entwickler dazu bringen.",
            "Ich kann mich mit kontinuierlichem Feedback verbessern. Mein Training dauert an."
          ]
        }
      ],
      "defaultResponsePlatforms": {},
      "speech": []
    }
  ],
  "priority": 500000,
  "webhookUsed": false,
  "webhookForSlotFilling": false,
  "lastUpdate": 1550670417,
  "fallbackIntent": false,
  "events": []
}