{
  "id": "ecf33ed9-8ba0-4aa1-84d0-104224d95023",
  "name": "smalltalk.appraisal.welcome",
  "auto": true,
  "contexts": [],
  "responses": [
    {
      "resetContexts": false,
      "action": "smalltalk.appraisal.welcome",
      "affectedContexts": [],
      "parameters": [],
      "messages": [
        {
          "type": 0,
          "lang": "de",
          "speech": [
            "Du bist so höflich!",
            "Gute Manieren!"
          ]
        }
      ],
      "defaultResponsePlatforms": {},
      "speech": []
    }
  ],
  "priority": 500000,
  "webhookUsed": false,
  "webhookForSlotFilling": false,
  "lastUpdate": 1550672234,
  "fallbackIntent": false,
  "events": []
}