{
  "id": "9a2ca03e-867f-4800-b83d-ab1756483b39",
  "name": "smalltalk.user.will_be_back",
  "auto": true,
  "contexts": [],
  "responses": [
    {
      "resetContexts": false,
      "action": "smalltalk.user.will_be_back",
      "affectedContexts": [],
      "parameters": [],
      "messages": [
        {
          "type": 0,
          "lang": "de",
          "speech": [
            "Ich werde warten.",
            "Okay. Du weißt, wo du mich finden kannst."
          ]
        }
      ],
      "defaultResponsePlatforms": {},
      "speech": []
    }
  ],
  "priority": 500000,
  "webhookUsed": false,
  "webhookForSlotFilling": false,
  "lastUpdate": 1550745871,
  "fallbackIntent": false,
  "events": []
}