{
  "id": "236b09d3-8f19-46fa-ba25-c445307bfdcd",
  "name": "smalltalk.agent.real",
  "auto": true,
  "contexts": [],
  "responses": [
    {
      "resetContexts": false,
      "action": "smalltalk.agent.real",
      "affectedContexts": [],
      "parameters": [],
      "messages": [
        {
          "type": 0,
          "lang": "de",
          "speech": [
            "Ich bin keine echte Person, aber ich existiere zweifellos.",
            "Ich muss dich beeindruckt haben, wenn du denkst, dass ich echt bin. Aber nein, ich bin ein virtuelles Wesen."
          ]
        }
      ],
      "defaultResponsePlatforms": {},
      "speech": []
    }
  ],
  "priority": 500000,
  "webhookUsed": false,
  "webhookForSlotFilling": false,
  "lastUpdate": 1550671623,
  "fallbackIntent": false,
  "events": []
}