[
  {
    "id": "15a04589-52c7-4ebc-a97c-297aada803a2",
    "data": [
      {
        "text": "bist du",
        "meta": "@sys.ignore",
        "userDefined": true
      },
      {
        "text": " bereit",
        "userDefined": false
      }
    ],
    "isTemplate": false,
    "count": 0,
    "updated": 0
  },
  {
    "id": "21705ddf-9c10-47d0-82b6-170228af721b",
    "data": [
      {
        "text": "du hast keine Zeit mehr",
        "userDefined": false
      }
    ],
    "isTemplate": false,
    "count": 0,
    "updated": 0
  },
  {
    "id": "84eb8fa1-ee0b-4682-be7e-db63099d1adb",
    "data": [
      {
        "text": "bist du",
        "meta": "@sys.ignore",
        "userDefined": true
      },
      {
        "text": " ",
        "userDefined": false
      },
      {
        "text": "fertig",
        "meta": "@sys.ignore",
        "userDefined": true
      },
      {
        "text": " ",
        "userDefined": false
      },
      {
        "text": "und",
        "meta": "@sys.ignore",
        "userDefined": true
      },
      {
        "text": " bereit",
        "userDefined": false
      }
    ],
    "isTemplate": false,
    "count": 1,
    "updated": 0
  },
  {
    "id": "e22e3599-0761-4747-9676-4304d6af995d",
    "data": [
      {
        "text": "die Zeit is abgelaufen",
        "userDefined": false
      }
    ],
    "isTemplate": false,
    "count": 0,
    "updated": 0
  },
  {
    "id": "b644d196-0ff9-432c-a7c1-b09a91286cdb",
    "data": [
      {
        "text": "bist du",
        "meta": "@sys.ignore",
        "userDefined": true
      },
      {
        "text": " ",
        "userDefined": false
      },
      {
        "text": "so",
        "meta": "@sys.ignore",
        "userDefined": true
      },
      {
        "text": " weit",
        "userDefined": false
      }
    ],
    "isTemplate": false,
    "count": 0,
    "updated": 0
  },
  {
    "id": "6b83356f-3cec-423a-a44c-6081814ff53d",
    "data": [
      {
        "text": "hast",
        "meta": "@sys.ignore",
        "userDefined": true
      },
      {
        "text": " ",
        "userDefined": false
      },
      {
        "text": "du",
        "meta": "@sys.ignore",
        "userDefined": true
      },
      {
        "text": " ",
        "userDefined": false
      },
      {
        "text": "alles",
        "meta": "@sys.ignore",
        "userDefined": true
      },
      {
        "text": " ",
        "userDefined": false
      },
      {
        "text": "fertig",
        "meta": "@sys.ignore",
        "userDefined": true
      },
      {
        "text": " gemacht",
        "userDefined": false
      }
    ],
    "isTemplate": false,
    "count": 0,
    "updated": 0
  },
  {
    "id": "5a549a27-53a7-44f4-b5da-809cc7723b11",
    "data": [
      {
        "text": "bist du",
        "meta": "@sys.ignore",
        "userDefined": true
      },
      {
        "text": " parat",
        "userDefined": false
      }
    ],
    "isTemplate": false,
    "count": 0,
    "updated": 0
  },
  {
    "id": "85b52605-27b4-4d37-8f66-31b1236427ff",
    "data": [
      {
        "text": "die",
        "meta": "@sys.ignore",
        "userDefined": true
      },
      {
        "text": " ",
        "userDefined": false
      },
      {
        "text": "Zeit ist um",
        "meta": "@sys.ignore",
        "userDefined": true
      }
    ],
    "isTemplate": false,
    "count": 0,
    "updated": 0
  },
  {
    "id": "bdda2844-8cb2-457b-b5fb-c68377207843",
    "data": [
      {
        "text": "alles parat",
        "userDefined": false
      }
    ],
    "isTemplate": false,
    "count": 0,
    "updated": 0
  },
  {
    "id": "adcab4c7-49fe-4442-a12d-826c913b91dc",
    "data": [
      {
        "text": "warst ",
        "userDefined": false
      },
      {
        "text": "du",
        "meta": "@sys.ignore",
        "userDefined": true
      },
      {
        "text": " schon ",
        "userDefined": false
      },
      {
        "text": "fertig",
        "meta": "@sys.ignore",
        "userDefined": true
      }
    ],
    "isTemplate": false,
    "count": 0,
    "updated": 0
  },
  {
    "id": "ba92288d-bb63-460f-9b66-ff737710da9e",
    "data": [
      {
        "text": "hast du alles parat",
        "userDefined": false
      }
    ],
    "isTemplate": false,
    "count": 0,
    "updated": 0
  },
  {
    "id": "869b72ef-6092-46f5-a64d-6315f8b19c56",
    "data": [
      {
        "text": "ich denke ",
        "userDefined": false
      },
      {
        "text": "du bist",
        "meta": "@sys.ignore",
        "userDefined": true
      },
      {
        "text": " ",
        "userDefined": false
      },
      {
        "text": "so",
        "meta": "@sys.ignore",
        "userDefined": true
      },
      {
        "text": " weit",
        "userDefined": false
      }
    ],
    "isTemplate": false,
    "count": 0,
    "updated": 0
  },
  {
    "id": "d10e37f4-8d5a-4b53-8e86-7d95a3b38e14",
    "data": [
      {
        "text": "warst ",
        "userDefined": false
      },
      {
        "text": "du",
        "meta": "@sys.ignore",
        "userDefined": true
      },
      {
        "text": " ",
        "userDefined": false
      },
      {
        "text": "fertig",
        "meta": "@sys.ignore",
        "userDefined": true
      }
    ],
    "isTemplate": false,
    "count": 0,
    "updated": 0
  },
  {
    "id": "7f225bc5-6457-468f-a9b4-a53032b6bb85",
    "data": [
      {
        "text": "bist du",
        "meta": "@sys.ignore",
        "userDefined": true
      },
      {
        "text": " ",
        "userDefined": false
      },
      {
        "text": "fertig",
        "meta": "@sys.ignore",
        "userDefined": true
      },
      {
        "text": " ",
        "userDefined": false
      },
      {
        "text": "jetzt",
        "meta": "@sys.ignore",
        "userDefined": true
      }
    ],
    "isTemplate": false,
    "count": 1,
    "updated": 0
  },
  {
    "id": "9fc36317-39b5-4ddd-971f-574c1318d3f1",
    "data": [
      {
        "text": "bist du",
        "meta": "@sys.ignore",
        "userDefined": true
      },
      {
        "text": " ",
        "userDefined": false
      },
      {
        "text": "fertig",
        "meta": "@sys.ignore",
        "userDefined": true
      }
    ],
    "isTemplate": false,
    "count": 0,
    "updated": 0
  },
  {
    "id": "6eb14baa-3a68-4297-b5e2-118f8180d3c5",
    "data": [
      {
        "text": "bist du",
        "meta": "@sys.ignore",
        "userDefined": true
      },
      {
        "text": " ",
        "userDefined": false
      },
      {
        "text": "fertig",
        "meta": "@sys.ignore",
        "userDefined": true
      },
      {
        "text": " ",
        "userDefined": false
      },
      {
        "text": "heute",
        "meta": "@sys.ignore",
        "userDefined": true
      }
    ],
    "isTemplate": false,
    "count": 0,
    "updated": 0
  }
]