[
  {
    "id": "1cff0324-85c2-4a52-89de-7f591bf599d1",
    "data": [
      {
        "text": "halt",
        "userDefined": false
      }
    ],
    "isTemplate": false,
    "count": 1,
    "updated": 0
  },
  {
    "id": "f18e4443-15a1-4c19-8d62-7ebe56fe4194",
    "data": [
      {
        "text": "warte bitte",
        "userDefined": false
      }
    ],
    "isTemplate": false,
    "count": 0,
    "updated": 0
  },
  {
    "id": "378e3507-0995-41ff-8c2b-e2a46403bb5e",
    "data": [
      {
        "text": "warte kurz",
        "userDefined": false
      }
    ],
    "isTemplate": false,
    "count": 0,
    "updated": 0
  },
  {
    "id": "72b5e44d-b4e8-460c-b3b2-3c853d74571e",
    "data": [
      {
        "text": "warte ",
        "userDefined": false
      },
      {
        "text": "mal",
        "meta": "@sys.ignore",
        "userDefined": false
      }
    ],
    "isTemplate": false,
    "count": 0,
    "updated": 0
  },
  {
    "id": "f573e97a-1fe0-48e3-a623-589fc6487e99",
    "data": [
      {
        "text": "einen Moment mal bitte",
        "userDefined": false
      }
    ],
    "isTemplate": false,
    "count": 0,
    "updated": 0
  },
  {
    "id": "a4e4a527-cd93-4aa9-a278-09f085820964",
    "data": [
      {
        "text": "warte",
        "userDefined": false
      }
    ],
    "isTemplate": false,
    "count": 0,
    "updated": 0
  },
  {
    "id": "953b88cf-1b68-4f5c-b6ac-9e27411e78b9",
    "data": [
      {
        "text": "warte auf mich",
        "userDefined": false
      }
    ],
    "isTemplate": false,
    "count": 0,
    "updated": 0
  },
  {
    "id": "99f071fd-47ed-4932-a623-12a2995ee1fd",
    "data": [
      {
        "text": "Moment mal",
        "userDefined": false
      }
    ],
    "isTemplate": false,
    "count": 0,
    "updated": 0
  },
  {
    "id": "91ecbe61-b639-4b7c-9581-6426f944f5c7",
    "data": [
      {
        "text": "nicht so schnell",
        "userDefined": false
      }
    ],
    "isTemplate": false,
    "count": 0,
    "updated": 0
  }
]