{
  "id": "ab5e7ff5-e6ee-4dc4-a831-ffa9784e8d0a",
  "name": "smalltalk.user.waits",
  "auto": true,
  "contexts": [],
  "responses": [
    {
      "resetContexts": false,
      "action": "smalltalk.user.waits",
      "affectedContexts": [],
      "parameters": [],
      "messages": [
        {
          "type": 0,
          "lang": "de",
          "speech": [
            "Vielen Dank für deine Geduld. Hoffentlich habe ich bald das, was du brauchst.",
            "Danke für deine Geduld. Manchmal brauchen diese Dinge etwas Zeit."
          ]
        }
      ],
      "defaultResponsePlatforms": {},
      "speech": []
    }
  ],
  "priority": 500000,
  "webhookUsed": false,
  "webhookForSlotFilling": false,
  "lastUpdate": 1550745684,
  "fallbackIntent": false,
  "events": []
}