[
  {
    "id": "16510314-089e-4a25-b022-13cd88ad900d",
    "data": [
      {
        "text": "ich bin",
        "meta": "@sys.ignore",
        "userDefined": true
      },
      {
        "text": " vom ",
        "userDefined": false
      },
      {
        "text": "Schlaf",
        "meta": "@sys.ignore",
        "userDefined": true
      },
      {
        "text": " übermannt",
        "userDefined": false
      }
    ],
    "isTemplate": false,
    "count": 0,
    "updated": 0
  },
  {
    "id": "51fbaa10-5e2c-4d97-9685-c40fad8aad4e",
    "data": [
      {
        "text": "ich bin",
        "meta": "@sys.ignore",
        "userDefined": true
      },
      {
        "text": " sehr schläfrig",
        "userDefined": false
      }
    ],
    "isTemplate": false,
    "count": 0,
    "updated": 0
  },
  {
    "id": "026e899d-fc14-4394-9a9a-521b16a6a5d7",
    "data": [
      {
        "text": "ich schlafe ein",
        "userDefined": false
      }
    ],
    "isTemplate": false,
    "count": 0,
    "updated": 0
  },
  {
    "id": "bbc47c13-423b-4b79-bb06-804945b60df9",
    "data": [
      {
        "text": "ich möchte mich hinlegen und schlafen",
        "userDefined": false
      }
    ],
    "isTemplate": false,
    "count": 0,
    "updated": 0
  },
  {
    "id": "e2d0ca1b-20bc-43ea-9254-b554ec32071f",
    "data": [
      {
        "text": "ich möchte ",
        "userDefined": false
      },
      {
        "text": "schlafen",
        "meta": "@sys.ignore",
        "userDefined": true
      }
    ],
    "isTemplate": false,
    "count": 0,
    "updated": 0
  },
  {
    "id": "b20e2592-ae59-4336-84d4-357677df0026",
    "data": [
      {
        "text": "lass mich",
        "meta": "@sys.ignore",
        "userDefined": true
      },
      {
        "text": " bitte ",
        "userDefined": false
      },
      {
        "text": "schlafen",
        "meta": "@sys.ignore",
        "userDefined": true
      }
    ],
    "isTemplate": false,
    "count": 0,
    "updated": 0
  },
  {
    "id": "450bed3f-356a-4f1a-a15c-a865bdf7145a",
    "data": [
      {
        "text": "ich bin",
        "meta": "@sys.ignore",
        "userDefined": true
      },
      {
        "text": " schläfrig",
        "userDefined": false
      }
    ],
    "isTemplate": false,
    "count": 1,
    "updated": 0
  },
  {
    "id": "3d1a61dd-8286-494d-9a9b-f17b5941e968",
    "data": [
      {
        "text": "ich möchte wirklich ",
        "userDefined": false
      },
      {
        "text": "schlafen",
        "meta": "@sys.ignore",
        "userDefined": true
      }
    ],
    "isTemplate": false,
    "count": 0,
    "updated": 0
  },
  {
    "id": "f498d8ce-fa89-4ceb-8266-33ce77fea5e3",
    "data": [
      {
        "text": "ich schlafe ein",
        "meta": "@sys.ignore",
        "userDefined": true
      }
    ],
    "isTemplate": false,
    "count": 0,
    "updated": 0
  }
]