[
  {
    "id": "0ed54e69-c1d2-4d67-9164-423fea1136d5",
    "data": [
      {
        "text": "sehen wir uns bald wieder",
        "userDefined": false
      }
    ],
    "isTemplate": false,
    "count": 0,
    "updated": 0
  },
  {
    "id": "7bd22d1e-b4c8-454d-bb08-eb1ab62e21c1",
    "data": [
      {
        "text": "ich will dich wiedersehen",
        "userDefined": false
      }
    ],
    "isTemplate": false,
    "count": 0,
    "updated": 0
  },
  {
    "id": "8e6dc7d4-c565-4f76-ae97-9998addccab0",
    "data": [
      {
        "text": "kann ich dich wiedersehen",
        "userDefined": false
      }
    ],
    "isTemplate": false,
    "count": 0,
    "updated": 0
  },
  {
    "id": "cde40b99-0541-4565-9547-87f2e948e9a1",
    "data": [
      {
        "text": "wie können wir uns wiedersehen",
        "userDefined": false
      }
    ],
    "isTemplate": false,
    "count": 0,
    "updated": 0
  },
  {
    "id": "7c2fd934-237a-41f8-a3a0-5ce4d79db6d2",
    "data": [
      {
        "text": "wann treffen wir uns wieder",
        "userDefined": false
      }
    ],
    "isTemplate": false,
    "count": 0,
    "updated": 0
  },
  {
    "id": "be285c63-d552-4924-a04d-6aa4087d88cd",
    "data": [
      {
        "text": "wie kann ich dich wiedersehen",
        "userDefined": false
      }
    ],
    "isTemplate": false,
    "count": 0,
    "updated": 0
  },
  {
    "id": "b50fa443-9da6-465c-aa59-4cf29d82b8cc",
    "data": [
      {
        "text": "wann kann ich dich wiedersehen",
        "userDefined": false
      }
    ],
    "isTemplate": false,
    "count": 0,
    "updated": 0
  },
  {
    "id": "281507e5-1153-403c-98c3-6e71650aeb8f",
    "data": [
      {
        "text": "können wir uns bald wiedersehen",
        "userDefined": false
      }
    ],
    "isTemplate": false,
    "count": 0,
    "updated": 0
  },
  {
    "id": "0016b9eb-31d6-429f-ad43-a2368b677aba",
    "data": [
      {
        "text": "wann sehen wir uns wieder",
        "userDefined": false
      }
    ],
    "isTemplate": false,
    "count": 0,
    "updated": 0
  }
]