[
  {
    "id": "92131626-7b01-4555-895e-b4c0bc3feb91",
    "data": [
      {
        "text": "falsch",
        "userDefined": false
      }
    ],
    "isTemplate": false,
    "count": 0,
    "updated": 0
  },
  {
    "id": "41b0128f-e9dd-4a94-9697-991954053b3d",
    "data": [
      {
        "text": "das ist nicht was ich gefragt habe",
        "userDefined": false
      }
    ],
    "isTemplate": false,
    "count": 0,
    "updated": 0
  },
  {
    "id": "82c25eeb-6dd0-4dbf-97cd-29aec02b1725",
    "data": [
      {
        "text": "das war nicht meine Frage",
        "userDefined": false
      }
    ],
    "isTemplate": false,
    "count": 0,
    "updated": 0
  },
  {
    "id": "c8265e43-17eb-4521-ade0-91403c694869",
    "data": [
      {
        "text": "das ist unkorrekt",
        "userDefined": false
      }
    ],
    "isTemplate": false,
    "count": 0,
    "updated": 0
  },
  {
    "id": "6091d9d2-b73b-4948-9949-63ab91d9c43f",
    "data": [
      {
        "text": "das ist falsch",
        "userDefined": false
      }
    ],
    "isTemplate": false,
    "count": 0,
    "updated": 0
  },
  {
    "id": "874891d6-b923-4675-a41a-dc1ca7d01bd0",
    "data": [
      {
        "text": "das stimmt nicht",
        "userDefined": false
      }
    ],
    "isTemplate": false,
    "count": 1,
    "updated": 0
  },
  {
    "id": "f458f4b9-c799-4236-8e63-5b82a09b9bd7",
    "data": [
      {
        "text": "das ist nicht richtig",
        "userDefined": false
      }
    ],
    "isTemplate": false,
    "count": 0,
    "updated": 0
  },
  {
    "id": "c75cb66b-432c-444c-967b-e6255832745c",
    "data": [
      {
        "text": "es ist unkorrekt",
        "userDefined": false
      }
    ],
    "isTemplate": false,
    "count": 0,
    "updated": 0
  },
  {
    "id": "a07ae48e-0c08-4d39-bd5e-663c516812ef",
    "data": [
      {
        "text": "das ist nicht korrekt",
        "userDefined": false
      }
    ],
    "isTemplate": false,
    "count": 0,
    "updated": 0
  },
  {
    "id": "4be05f52-5148-4e6e-b152-ad2428b4e4ca",
    "data": [
      {
        "text": "es ist falsch",
        "userDefined": false
      }
    ],
    "isTemplate": false,
    "count": 0,
    "updated": 0
  }
]