{
  "id": "9136f7a1-fdef-480b-8a4c-3b467e9324af",
  "name": "smalltalk.user.angry",
  "auto": true,
  "contexts": [],
  "responses": [
    {
      "resetContexts": false,
      "action": "smalltalk.user.angry",
      "affectedContexts": [],
      "parameters": [],
      "messages": [
        {
          "type": 0,
          "lang": "de",
          "speech": [
            "Es tut mir Leid. Bei einem kurzen Spaziergang fühlst du dich vielleicht besser.",
            "Tief durchatmen."
          ]
        }
      ],
      "defaultResponsePlatforms": {},
      "speech": []
    }
  ],
  "priority": 500000,
  "webhookUsed": false,
  "webhookForSlotFilling": false,
  "lastUpdate": 1550744415,
  "fallbackIntent": false,
  "events": []
}