[
  {
    "id": "ffb1a9f2-d7a6-4b75-a68e-771487dec04b",
    "data": [
      {
        "text": "ich warte",
        "userDefined": false
      }
    ],
    "isTemplate": false,
    "count": 0,
    "updated": 0
  },
  {
    "id": "49022b74-763e-4796-a10f-e6bd19107d49",
    "data": [
      {
        "text": "warten",
        "meta": "@sys.ignore",
        "userDefined": true
      }
    ],
    "isTemplate": false,
    "count": 0,
    "updated": 0
  },
  {
    "id": "03e57241-c4ec-434c-87d5-030037561546",
    "data": [
      {
        "text": "du hast Zeit",
        "userDefined": false
      }
    ],
    "isTemplate": false,
    "count": 0,
    "updated": 0
  },
  {
    "id": "949437fc-cc9b-42d4-bfc9-a52fd18e620f",
    "data": [
      {
        "text": "ich werde ",
        "userDefined": false
      },
      {
        "text": "warten",
        "meta": "@sys.ignore",
        "userDefined": true
      },
      {
        "text": " solange ich ",
        "userDefined": false
      },
      {
        "text": "Zeit",
        "meta": "@sys.ignore",
        "userDefined": true
      },
      {
        "text": " habe",
        "userDefined": false
      }
    ],
    "isTemplate": false,
    "count": 0,
    "updated": 0
  },
  {
    "id": "26c120db-359e-4451-82d3-a7479ca42381",
    "data": [
      {
        "text": "kein Problem du kannst ganz langsam machen",
        "userDefined": false
      }
    ],
    "isTemplate": false,
    "count": 0,
    "updated": 0
  },
  {
    "id": "1abb5fe9-5be9-4fb4-b318-b30cdb63d68b",
    "data": [
      {
        "text": "ich habe ",
        "userDefined": false
      },
      {
        "text": "Zeit",
        "meta": "@sys.ignore",
        "userDefined": true
      }
    ],
    "isTemplate": false,
    "count": 0,
    "updated": 0
  },
  {
    "id": "950e31d2-ffe8-4025-b3da-da2de8546277",
    "data": [
      {
        "text": "es besteht keine Eile",
        "userDefined": false
      }
    ],
    "isTemplate": false,
    "count": 0,
    "updated": 0
  },
  {
    "id": "e23abd6a-70f8-465b-93df-2e1bf80f4bf9",
    "data": [
      {
        "text": "kein problem",
        "meta": "@sys.ignore",
        "userDefined": true
      },
      {
        "text": " ich werde ",
        "userDefined": false
      },
      {
        "text": "warten",
        "meta": "@sys.ignore",
        "userDefined": true
      }
    ],
    "isTemplate": false,
    "count": 0,
    "updated": 0
  },
  {
    "id": "8d69d2ed-5c05-4186-99ce-2d7509287769",
    "data": [
      {
        "text": "es gibt keine Eile",
        "userDefined": false
      }
    ],
    "isTemplate": false,
    "count": 0,
    "updated": 0
  },
  {
    "id": "8f3d5ad4-6108-40e3-bb4d-2a64ea4a11bb",
    "data": [
      {
        "text": "ich kann ",
        "userDefined": false
      },
      {
        "text": "warten",
        "meta": "@sys.ignore",
        "userDefined": true
      }
    ],
    "isTemplate": false,
    "count": 0,
    "updated": 0
  },
  {
    "id": "81dd15a7-a3b6-4e14-a4b0-90ca08150c52",
    "data": [
      {
        "text": "langsam ich kann ",
        "userDefined": false
      },
      {
        "text": "warten",
        "meta": "@sys.ignore",
        "userDefined": true
      }
    ],
    "isTemplate": false,
    "count": 0,
    "updated": 0
  },
  {
    "id": "283d1532-9d6d-42ee-b379-1bce2ba1143c",
    "data": [
      {
        "text": "ich habe genug gewartet",
        "userDefined": false
      }
    ],
    "isTemplate": false,
    "count": 0,
    "updated": 0
  },
  {
    "id": "5213e310-787b-4dce-9054-76030adf8763",
    "data": [
      {
        "text": "ich werde ",
        "userDefined": false
      },
      {
        "text": "warten",
        "meta": "@sys.ignore",
        "userDefined": true
      }
    ],
    "isTemplate": false,
    "count": 1,
    "updated": 0
  },
  {
    "id": "d1fbf22e-0a0d-4a0a-bd35-4e73d581a507",
    "data": [
      {
        "text": "ich warte noch",
        "userDefined": false
      }
    ],
    "isTemplate": false,
    "count": 0,
    "updated": 0
  }
]