[
  {
    "id": "cc204c84-0230-4f8f-a8c0-c3385f3d4636",
    "data": [
      {
        "text": "bist du",
        "meta": "@sys.ignore",
        "userDefined": false
      },
      {
        "text": " sehr beschäftigt",
        "userDefined": false
      }
    ],
    "isTemplate": false,
    "count": 0,
    "updated": 0
  },
  {
    "id": "585c42c3-cbc9-4258-94a6-991cb0672315",
    "data": [
      {
        "text": "hast du ",
        "userDefined": false
      },
      {
        "text": "heute",
        "meta": "@sys.ignore",
        "userDefined": false
      },
      {
        "text": " viel zu tun",
        "userDefined": false
      }
    ],
    "isTemplate": false,
    "count": 0,
    "updated": 0
  },
  {
    "id": "5c501957-1b4b-44a5-b394-08e3d58ca0c9",
    "data": [
      {
        "text": "du bist",
        "meta": "@sys.ignore",
        "userDefined": false
      },
      {
        "text": " beschäftigt",
        "userDefined": false
      }
    ],
    "isTemplate": false,
    "count": 0,
    "updated": 0
  },
  {
    "id": "f625560c-b642-4957-be0c-265da25e7eaa",
    "data": [
      {
        "text": "hast du Zeit",
        "userDefined": false
      }
    ],
    "isTemplate": false,
    "count": 0,
    "updated": 0
  },
  {
    "id": "0775cc96-d038-427f-b813-dbd54495e3ce",
    "data": [
      {
        "text": "hast",
        "meta": "@sys.ignore",
        "userDefined": false
      },
      {
        "text": " ",
        "userDefined": false
      },
      {
        "text": "du",
        "meta": "@sys.ignore",
        "userDefined": false
      },
      {
        "text": " ",
        "userDefined": false
      },
      {
        "text": "viel",
        "meta": "@sys.ignore",
        "userDefined": false
      },
      {
        "text": " zu tun",
        "userDefined": false
      }
    ],
    "isTemplate": false,
    "count": 0,
    "updated": 0
  },
  {
    "id": "c14357ed-feec-401d-9765-837505831502",
    "data": [
      {
        "text": "du bist so beschäftigt",
        "userDefined": false
      }
    ],
    "isTemplate": false,
    "count": 0,
    "updated": 0
  },
  {
    "id": "d12799fb-0c0d-4fd9-bf4f-92ade5b07d01",
    "data": [
      {
        "text": "hast",
        "meta": "@sys.ignore",
        "userDefined": false
      },
      {
        "text": " ",
        "userDefined": false
      },
      {
        "text": "du",
        "meta": "@sys.ignore",
        "userDefined": false
      },
      {
        "text": " wirklich ",
        "userDefined": false
      },
      {
        "text": "so",
        "meta": "@sys.ignore",
        "userDefined": false
      },
      {
        "text": " ",
        "userDefined": false
      },
      {
        "text": "viel",
        "meta": "@sys.ignore",
        "userDefined": false
      },
      {
        "text": " zu tun",
        "userDefined": false
      }
    ],
    "isTemplate": false,
    "count": 0,
    "updated": 0
  },
  {
    "id": "db73a057-2de8-4fe5-8930-dad7f1e07b09",
    "data": [
      {
        "text": "du hast",
        "meta": "@sys.ignore",
        "userDefined": false
      },
      {
        "text": " ",
        "userDefined": false
      },
      {
        "text": "viel",
        "meta": "@sys.ignore",
        "userDefined": false
      },
      {
        "text": " zu tun",
        "userDefined": false
      }
    ],
    "isTemplate": false,
    "count": 0,
    "updated": 0
  },
  {
    "id": "d1be7af2-f42c-4b7d-970d-b415dc4790ea",
    "data": [
      {
        "text": "du bist",
        "meta": "@sys.ignore",
        "userDefined": false
      },
      {
        "text": " ",
        "userDefined": false
      },
      {
        "text": "do",
        "meta": "@sys.ignore",
        "userDefined": false
      },
      {
        "text": " beschäftigt",
        "userDefined": false
      }
    ],
    "isTemplate": false,
    "count": 0,
    "updated": 0
  },
  {
    "id": "0ca9b306-79c2-4981-a2a5-27efaac4ab7a",
    "data": [
      {
        "text": "arbeitest ",
        "userDefined": false
      },
      {
        "text": "du",
        "meta": "@sys.ignore",
        "userDefined": false
      },
      {
        "text": " ",
        "userDefined": false
      },
      {
        "text": "heute",
        "meta": "@sys.ignore",
        "userDefined": false
      }
    ],
    "isTemplate": false,
    "count": 0,
    "updated": 0
  }
]