[
  {
    "id": "2f7021fd-0570-4c14-b5cb-be2034774a24",
    "data": [
      {
        "text": "freut mich dich zu sehen",
        "userDefined": false
      }
    ],
    "isTemplate": false,
    "count": 0,
    "updated": 0
  },
  {
    "id": "14565e75-001b-4dc9-8fde-2d8c80ea356b",
    "data": [
      {
        "text": "schön dich zu sehen",
        "userDefined": false
      }
    ],
    "isTemplate": false,
    "count": 0,
    "updated": 0
  },
  {
    "id": "c8ea94c9-5b39-4561-80a8-6a4533b7cf8c",
    "data": [
      {
        "text": "was für eine Freude dich zu sehen",
        "userDefined": false
      }
    ],
    "isTemplate": false,
    "count": 0,
    "updated": 0
  },
  {
    "id": "c25e34c4-c7b8-4a82-b726-42c2e69394c9",
    "data": [
      {
        "text": "schön dich wiederzutreffen",
        "userDefined": false
      }
    ],
    "isTemplate": false,
    "count": 0,
    "updated": 0
  },
  {
    "id": "c16bfe72-ee72-4166-b4af-42f7250678db",
    "data": [
      {
        "text": "nett dich wiederzusehen",
        "userDefined": false
      }
    ],
    "isTemplate": false,
    "count": 0,
    "updated": 0
  },
  {
    "id": "6bc78f36-a930-4081-abd2-5dda1e989028",
    "data": [
      {
        "text": "schön dass wir uns sehen",
        "userDefined": false
      }
    ],
    "isTemplate": false,
    "count": 0,
    "updated": 0
  },
  {
    "id": "b97558ad-7249-4b81-af9c-55f51dfd084b",
    "data": [
      {
        "text": "schön dass wir uns wiedersehen",
        "userDefined": false
      }
    ],
    "isTemplate": false,
    "count": 0,
    "updated": 0
  },
  {
    "id": "e2dd8fca-e999-4ffd-9e71-0be7b0653031",
    "data": [
      {
        "text": "freut mich dich wiederzusehen",
        "userDefined": false
      }
    ],
    "isTemplate": false,
    "count": 0,
    "updated": 0
  },
  {
    "id": "f8745b15-0202-4541-90e5-a8ef76f3b82f",
    "data": [
      {
        "text": "freue mich dich zu sehen",
        "userDefined": false
      }
    ],
    "isTemplate": false,
    "count": 0,
    "updated": 0
  },
  {
    "id": "f70fca9a-22eb-44bf-ab4a-8e722d140367",
    "data": [
      {
        "text": "schön dich zu treffen",
        "userDefined": false
      }
    ],
    "isTemplate": false,
    "count": 0,
    "updated": 0
  }
]