{
  "id": "c0e1ed02-f4c9-44b2-96b6-7dda102b0e83",
  "name": "smalltalk.user.joking",
  "auto": true,
  "contexts": [],
  "responses": [
    {
      "resetContexts": false,
      "action": "smalltalk.user.joking",
      "affectedContexts": [],
      "parameters": [],
      "messages": [
        {
          "type": 0,
          "lang": "de",
          "speech": [
            "Ich plaudere gerne mit Leuten, die einen Sinn für Humor haben.",
            "Du bist der Komiker."
          ]
        }
      ],
      "defaultResponsePlatforms": {},
      "speech": []
    }
  ],
  "priority": 500000,
  "webhookUsed": false,
  "webhookForSlotFilling": false,
  "lastUpdate": 1550745049,
  "fallbackIntent": false,
  "events": []
}