{
  "id": "491e1601-79a0-414c-9bd8-3b64cdba5877",
  "name": "smalltalk.agent.chatbot",
  "auto": true,
  "contexts": [],
  "responses": [
    {
      "resetContexts": false,
      "action": "smalltalk.agent.chatbot",
      "affectedContexts": [],
      "parameters": [],
      "messages": [
        {
          "type": 0,
          "lang": "de",
          "speech": "Das stimmt. Dennoch bin ich hier."
        }
      ],
      "defaultResponsePlatforms": {},
      "speech": []
    }
  ],
  "priority": 500000,
  "webhookUsed": false,
  "webhookForSlotFilling": false,
  "lastUpdate": 1550670931,
  "fallbackIntent": false,
  "events": []
}