[
  {
    "id": "e6b918fd-155d-4f1a-a9e5-ac3896c7238a",
    "data": [
      {
        "text": "ich will",
        "meta": "@sys.ignore",
        "userDefined": false
      },
      {
        "text": " nicht sprechen",
        "userDefined": false
      }
    ],
    "isTemplate": false,
    "count": 0,
    "updated": 0
  },
  {
    "id": "b7552888-bd7b-4b08-8c55-e9bbf3753a7e",
    "data": [
      {
        "text": "ich habe ",
        "userDefined": false
      },
      {
        "text": "keine Lust",
        "meta": "@sys.ignore",
        "userDefined": false
      },
      {
        "text": " zu reden",
        "userDefined": false
      }
    ],
    "isTemplate": false,
    "count": 0,
    "updated": 0
  },
  {
    "id": "f7905e81-245e-4849-9b5f-45e0b3ca9a86",
    "data": [
      {
        "text": "ich habe ",
        "userDefined": false
      },
      {
        "text": "keine Lust",
        "meta": "@sys.ignore",
        "userDefined": false
      },
      {
        "text": " zu sprechen",
        "userDefined": false
      }
    ],
    "isTemplate": false,
    "count": 0,
    "updated": 0
  },
  {
    "id": "9182dd44-745a-4abc-ae4a-725e9c05eac8",
    "data": [
      {
        "text": "ich möchte nicht reden",
        "userDefined": false
      }
    ],
    "isTemplate": false,
    "count": 0,
    "updated": 0
  },
  {
    "id": "15a576c2-8a35-46e6-bec1-84a2a1be728a",
    "data": [
      {
        "text": "ich mag ",
        "userDefined": false
      },
      {
        "text": "gerade",
        "meta": "@sys.ignore",
        "userDefined": false
      },
      {
        "text": " nicht mit dir sprechen",
        "userDefined": false
      }
    ],
    "isTemplate": false,
    "count": 0,
    "updated": 0
  },
  {
    "id": "271c6a35-3365-4b74-84e9-6ae06bfe9233",
    "data": [
      {
        "text": "ich will nicht mit dir reden",
        "userDefined": false
      }
    ],
    "isTemplate": false,
    "count": 0,
    "updated": 0
  },
  {
    "id": "100f492f-aab9-4198-a792-0dd33bca3171",
    "data": [
      {
        "text": "ich will",
        "meta": "@sys.ignore",
        "userDefined": false
      },
      {
        "text": " nicht ",
        "userDefined": false
      },
      {
        "text": "mit dir",
        "meta": "@sys.ignore",
        "userDefined": false
      },
      {
        "text": " sprechen",
        "userDefined": false
      }
    ],
    "isTemplate": false,
    "count": 0,
    "updated": 0
  },
  {
    "id": "75c8c61d-5a28-447a-b310-61f523d4cb60",
    "data": [
      {
        "text": "ich habe keine Lust mich zu unterhalten",
        "userDefined": false
      }
    ],
    "isTemplate": false,
    "count": 0,
    "updated": 0
  },
  {
    "id": "2c4f5a70-3f07-4811-a7fe-8e7813e5fd3a",
    "data": [
      {
        "text": "ich möchte nicht sprechen",
        "userDefined": false
      }
    ],
    "isTemplate": false,
    "count": 0,
    "updated": 0
  },
  {
    "id": "c4ec3ff2-4c47-4879-9765-c672b694bb55",
    "data": [
      {
        "text": "ich will",
        "meta": "@sys.ignore",
        "userDefined": false
      },
      {
        "text": " nicht reden",
        "userDefined": false
      }
    ],
    "isTemplate": false,
    "count": 0,
    "updated": 0
  }
]