[
  {
    "id": "53c9bbda-6453-42b3-9497-b3f6c09fc30d",
    "data": [
      {
        "text": "alles gut",
        "userDefined": false
      }
    ],
    "isTemplate": false,
    "count": 0,
    "updated": 0
  },
  {
    "id": "3efea1a6-bcfb-4408-9570-553296cfc5ae",
    "data": [
      {
        "text": "sehe ich da kein Problem",
        "userDefined": false
      }
    ],
    "isTemplate": false,
    "count": 0,
    "updated": 0
  },
  {
    "id": "9f845b24-816d-4de6-b35d-cb7077f95a34",
    "data": [
      {
        "text": "kein Problem",
        "userDefined": false
      }
    ],
    "isTemplate": false,
    "count": 0,
    "updated": 0
  },
  {
    "id": "e05c1b5d-b8af-4269-a001-6059725a19b2",
    "data": [
      {
        "text": "null",
        "meta": "@sys.ignore",
        "userDefined": false
      },
      {
        "text": " Problemo",
        "userDefined": false
      }
    ],
    "isTemplate": false,
    "count": 0,
    "updated": 0
  },
  {
    "id": "e9b9f312-57c9-4391-bd75-efd7922ed065",
    "data": [
      {
        "text": "gar kein Problem",
        "userDefined": false
      }
    ],
    "isTemplate": false,
    "count": 0,
    "updated": 0
  },
  {
    "id": "21666f32-c1ab-4965-9a5a-e2e46192f8ef",
    "data": [
      {
        "text": "das ",
        "userDefined": false
      },
      {
        "text": "ist",
        "meta": "@sys.ignore",
        "userDefined": false
      },
      {
        "text": " kein Problem für uns",
        "userDefined": false
      }
    ],
    "isTemplate": false,
    "count": 0,
    "updated": 0
  },
  {
    "id": "d379c8b1-4991-41d6-919b-30d7d507f492",
    "data": [
      {
        "text": "überhaupt kein Problem",
        "userDefined": false
      }
    ],
    "isTemplate": false,
    "count": 0,
    "updated": 0
  },
  {
    "id": "90f10d40-8381-496c-9d8c-0ade14ed3e57",
    "data": [
      {
        "text": "keine Schwierigkeiten",
        "userDefined": false
      }
    ],
    "isTemplate": false,
    "count": 0,
    "updated": 0
  },
  {
    "id": "b54e4d47-690c-424e-a872-39e3c5e0b59c",
    "data": [
      {
        "text": "keine Probleme erkennbar",
        "userDefined": false
      }
    ],
    "isTemplate": false,
    "count": 0,
    "updated": 0
  },
  {
    "id": "f89035df-6304-4e85-bfb8-da6fa5753a37",
    "data": [
      {
        "text": "da ist für mich aber kein großes Problem",
        "userDefined": false
      }
    ],
    "isTemplate": false,
    "count": 0,
    "updated": 0
  }
]