[
  {
    "id": "052674af-afe4-438d-a5cf-8a4929e8039b",
    "data": [
      {
        "text": "ich bin in dich verknallt",
        "userDefined": false
      }
    ],
    "isTemplate": false,
    "count": 0,
    "updated": 0
  },
  {
    "id": "cc2eb718-a56b-4021-9d63-f52dee54f5e8",
    "data": [
      {
        "text": "ich hab dich lieb",
        "userDefined": false
      }
    ],
    "isTemplate": false,
    "count": 0,
    "updated": 0
  },
  {
    "id": "56d93af1-5f8f-4fb7-a897-bd75580b775d",
    "data": [
      {
        "text": "liebe",
        "meta": "@sys.ignore",
        "userDefined": false
      },
      {
        "text": " dich",
        "userDefined": false
      }
    ],
    "isTemplate": false,
    "count": 0,
    "updated": 0
  },
  {
    "id": "c2c96f58-d382-44bd-9830-eeb00a9b8b9b",
    "data": [
      {
        "text": "ich liebe dich mehr ",
        "userDefined": false
      },
      {
        "text": "als",
        "meta": "@sys.ignore",
        "userDefined": false
      },
      {
        "text": " früher",
        "userDefined": false
      }
    ],
    "isTemplate": false,
    "count": 0,
    "updated": 0
  },
  {
    "id": "8ccafb00-2107-4ef7-93cd-897a7d45352b",
    "data": [
      {
        "text": "ich liebe dich",
        "meta": "@sys.ignore",
        "userDefined": false
      }
    ],
    "isTemplate": false,
    "count": 0,
    "updated": 0
  },
  {
    "id": "db6d8edb-56ba-44ab-83ea-186f531187e5",
    "data": [
      {
        "text": "ich bin so sehr ",
        "userDefined": false
      },
      {
        "text": "in",
        "meta": "@sys.ignore",
        "userDefined": false
      },
      {
        "text": " dich verliebt",
        "userDefined": false
      }
    ],
    "isTemplate": false,
    "count": 0,
    "updated": 0
  },
  {
    "id": "25fae826-428f-458d-b87c-ece8b6b41e1d",
    "data": [
      {
        "text": "ich glaub ich liebe dich",
        "userDefined": false
      }
    ],
    "isTemplate": false,
    "count": 0,
    "updated": 0
  },
  {
    "id": "0a99567a-bda5-413c-83c1-6e32d3028027",
    "data": [
      {
        "text": "ich hab mich in dich verliebt",
        "userDefined": false
      }
    ],
    "isTemplate": false,
    "count": 0,
    "updated": 0
  },
  {
    "id": "65bdda4a-eeb1-4aaf-8abe-247e5d84ca0d",
    "data": [
      {
        "text": "ich liebe dich ",
        "userDefined": false
      },
      {
        "text": "so",
        "meta": "@sys.ignore",
        "userDefined": false
      },
      {
        "text": " sehr",
        "userDefined": false
      }
    ],
    "isTemplate": false,
    "count": 0,
    "updated": 0
  },
  {
    "id": "01534769-177d-46d2-bdaf-ff0a3c23babc",
    "data": [
      {
        "text": "ich bin in dich verliebt",
        "userDefined": false
      }
    ],
    "isTemplate": false,
    "count": 0,
    "updated": 0
  }
]