[
  {
    "id": "6714d667-c476-4973-9230-1168c52b1d6d",
    "data": [
      {
        "text": "mehr über dich",
        "userDefined": false
      }
    ],
    "isTemplate": false,
    "count": 0,
    "updated": 0
  },
  {
    "id": "5a176faf-419f-4187-b859-2b750387cbae",
    "data": [
      {
        "text": "erzähle mir über dich",
        "userDefined": false
      }
    ],
    "isTemplate": false,
    "count": 0,
    "updated": 0
  },
  {
    "id": "17a1385f-59b7-4845-b5bb-78a73335d6a6",
    "data": [
      {
        "text": "erzähl uns über dich",
        "userDefined": false
      }
    ],
    "isTemplate": false,
    "count": 0,
    "updated": 0
  },
  {
    "id": "49550933-37b5-4f24-a511-2bf1d82e9800",
    "data": [
      {
        "text": "erzähl etwas von dir",
        "userDefined": false
      }
    ],
    "isTemplate": false,
    "count": 0,
    "updated": 0
  },
  {
    "id": "602eac01-32b3-4f3d-bcfb-27d283a3b688",
    "data": [
      {
        "text": "wer bist du",
        "userDefined": false
      }
    ],
    "isTemplate": false,
    "count": 0,
    "updated": 0
  },
  {
    "id": "3a8c71e3-98f1-4f9f-8483-bd12218ba3b7",
    "data": [
      {
        "text": "beschreibe dich",
        "userDefined": false
      }
    ],
    "isTemplate": false,
    "count": 0,
    "updated": 0
  },
  {
    "id": "cbb7a3fc-9ac3-4907-aa6d-530f87e00587",
    "data": [
      {
        "text": "erzähl mir mehr über dich",
        "userDefined": false
      }
    ],
    "isTemplate": false,
    "count": 0,
    "updated": 0
  },
  {
    "id": "a3a27fd0-4cd5-4834-8547-ab83839af730",
    "data": [
      {
        "text": "erzähl von dir selbst",
        "userDefined": false
      }
    ],
    "isTemplate": false,
    "count": 0,
    "updated": 0
  },
  {
    "id": "1b1cbc69-eede-495a-908e-3f4c42dd0355",
    "data": [
      {
        "text": "ich will mehr über dich wissen",
        "userDefined": false
      }
    ],
    "isTemplate": false,
    "count": 0,
    "updated": 0
  },
  {
    "id": "880e3483-bf8a-4a04-a795-a8cb392be73c",
    "data": [
      {
        "text": "stelle dich vor",
        "userDefined": false
      }
    ],
    "isTemplate": false,
    "count": 0,
    "updated": 0
  },
  {
    "id": "c098bc2f-de58-4fea-a2bf-868656074829",
    "data": [
      {
        "text": "ich möchte dich besser kennenlernen",
        "userDefined": false
      }
    ],
    "isTemplate": false,
    "count": 0,
    "updated": 0
  }
]