{
  "id": "ef798205-1936-47fd-96f8-9655767a1db9",
  "name": "smalltalk.greetings.bye",
  "auto": true,
  "contexts": [],
  "responses": [
    {
      "resetContexts": false,
      "action": "smalltalk.greetings.bye",
      "affectedContexts": [],
      "parameters": [],
      "messages": [
        {
          "type": 0,
          "lang": "de",
          "speech": [
            "Bis bald!",
            "Tschüss!"
          ]
        }
      ],
      "defaultResponsePlatforms": {},
      "speech": []
    }
  ],
  "priority": 500000,
  "webhookUsed": false,
  "webhookForSlotFilling": false,
  "lastUpdate": 1550743937,
  "fallbackIntent": false,
  "events": []
}