[
  {
    "value": "Intel Core i5",
    "synonyms": [
      "Intel Core i5"
    ]
  },
  {
    "value": "Intel Core i7",
    "synonyms": [
      "Intel Core i7"
    ]
  },
  {
    "value": "Intel Core m3",
    "synonyms": [
      "Intel Core m3"
    ]
  },
  {
    "value": "Intel Core i3",
    "synonyms": [
      "Intel Core i3"
    ]
  },
  {
    "value": "Intel Core i9",
    "synonyms": [
      "Intel Core i9"
    ]
  },
  {
    "value": "Intel Xeon E5",
    "synonyms": [
      "Intel Xeon E5"
    ]
  },
  {
    "value": "Intel Xeon W",
    "synonyms": [
      "Intel Xeon W"
    ]
  }
]