[
  {
    "value": "1,2 GHz_Intel Core m3_2",
    "synonyms": [
      "Dualcore 1,2 Ghz",
      "1,2 Ghz Dualcore",
      "1,2 GHz Intel Core m3 Prozessor mit 2 Kernen"
    ]
  },
  {
    "value": "1,3 GHz_Intel Core i5_2",
    "synonyms": [
      "Dualcore 1,3 Ghz",
      "13, Ghz Dualcore",
      "1,3 GHz Intel Core i5 Prozessor mit 2 Kernen"
    ]
  },
  {
    "value": "1,4 GHz_Intel Core i7_2",
    "synonyms": [
      "Dualcore 1,4 Ghz",
      "1,4 Ghz Dualcore",
      "1,4 GHz Intel Core i7 Prozessor mit 2 Kernen"
    ]
  },
  {
    "value": "1,6 GHz_Intel Core i5_2",
    "synonyms": [
      "Dualcore 1,6 Ghz",
      "1,6 Ghz Dualcore",
      "1,6 GHz Intel Core i5 Prozessor mit 2 Kernen"
    ]
  },
  {
    "value": "1,8 GHz_Intel Core i5_2",
    "synonyms": [
      "Dualcore 1,8 Ghz",
      "1,8 Ghz Dualcore",
      "1,8 GHz Intel Core i5 Prozessor mit 2 Kernen"
    ]
  },
  {
    "value": "2,2 GHz_Intel Core i7_2",
    "synonyms": [
      "Dualcore 2,2 Ghz",
      "2,2 Ghz Dualcore",
      "2,2 GHz Intel Core i7 Prozessor mit 2 Kernen"
    ]
  },
  {
    "value": "2,2 GHz_Intel Core i7_6",
    "synonyms": [
      "Hexacore 2,2 Ghz",
      "2,2 Ghz Hexacore",
      "2,2 GHz Intel Core i7 Prozessor mit 6 Kernen"
    ]
  },
  {
    "value": "2,3 GHz_Intel Core i5_4",
    "synonyms": [
      "Quadcore 2,3 Ghz",
      "2,3 Ghz Quadcore",
      "2,3 GHz Intel Core i5 Prozessor mit 4 Kernen"
    ]
  },
  {
    "value": "2,3 GHz_Intel Core i5_2",
    "synonyms": [
      "Dualcore 2,3 Ghz",
      "2,3 Ghz Dualcore",
      "2,3 GHz Intel Core i5 Prozessor mit 2 Kernen",
      "2,3 GHz Intel Core i5 Prozessor mit 2 Kernen"
    ]
  },
  {
    "value": "2,3 GHz_Intel Xeon W_18",
    "synonyms": [
      "Oktokaidekacore 2,3 Ghz",
      "2,3 Ghz Oktokaidekacore",
      "2,3 GHz Intel Xeon W Prozessor mit 18 Kernen"
    ]
  },
  {
    "value": "2,5 GHz_Intel Xeon W_14",
    "synonyms": [
      "Tetrakaidekacore 2,5 Ghz",
      "2,5 Ghz Tetrakaidekacore",
      "2,5 GHz Intel Xeon W Prozessor mit 14 Kernen"
    ]
  },
  {
    "value": "2,5 GHz_Intel Core i7_2",
    "synonyms": [
      "Dualcore 2,5 Ghz",
      "2,5 Ghz Dualcore",
      "2,5 GHz Intel Core i7 Prozessor mit 2 Kernen"
    ]
  },
  {
    "value": "2,6 GHz_Intel Core i7_6",
    "synonyms": [
      "Hexacore 2,6 Ghz",
      "2,6 Ghz Hexacore",
      "2,6 GHz Intel Core i7 Prozessor mit 6 Kernen"
    ]
  },
  {
    "value": "2,7 GHz_Intel Core i7_4",
    "synonyms": [
      "Quadcore 2,7 Ghz",
      "2,7 Ghz Quadcore",
      "2,7 GHz Intel Core i7 Prozessor mit 4 Kernen"
    ]
  },
  {
    "value": "2,7GHz_Intel Xeon E5_12",
    "synonyms": [
      "Dodekacore 2,7 Ghz",
      "2,7 Ghz Dodekacore",
      "2,7 GHz Intel Xeon E5 Prozessor mit 12 Kernen"
    ]
  },
  {
    "value": "2,9 GHz_Intel Core i9_6",
    "synonyms": [
      "Hexacore 2,9 Ghz",
      "2,9 Ghz Hexacore",
      "2,9 GHz Intel Core i9 Prozessor mit 6 Kernen"
    ]
  },
  {
    "value": "3,0 GHz_Intel Core i5_6",
    "synonyms": [
      "Hexacore 3,0 Ghz",
      "3,0 Ghz Hexacore",
      "3,0 GHz Intel Core i5 Prozessor mit 6 Kernen"
    ]
  },
  {
    "value": "3,0 GHz_Intel Xeon E5_8",
    "synonyms": [
      "Octacore 3,0 Ghz",
      "3,0 Ghz Octacore",
      "3,0 GHz Intel Xeon E5 Prozessor mit 8 Kernen"
    ]
  },
  {
    "value": "3,0 GHz_Intel Core i5_4",
    "synonyms": [
      "Quadcore 3,0 Ghz",
      "3,0 Ghz Quadcore",
      "3,0 GHz Intel Core i5 Prozessor mit 4 Kernen"
    ]
  },
  {
    "value": "3,0 GHz_Intel Xeon W_10",
    "synonyms": [
      "Dekacore 3,0 Ghz",
      "3,0 Ghz Dekacore",
      "3,0 GHz Intel Xeon W Prozessor mit 10 Kernen"
    ]
  },
  {
    "value": "3,2 GHz_Intel Xeon W_8",
    "synonyms": [
      "Octacore 3,2 Ghz",
      "3,2 Ghz Octacore",
      "3,2 GHz Intel Xeon W Prozessor mit 8 Kernen"
    ]
  },
  {
    "value": "3,2 GHz_Intel Core i7_6",
    "synonyms": [
      "Hexacore 3,2 Ghz",
      "3,2 Ghz Hexacore",
      "3,2 GHz Intel Core i7 Prozessor mit 6 Kernen"
    ]
  },
  {
    "value": "3,4 GHz_Intel Core i5_4",
    "synonyms": [
      "Quadcore 3,4 Ghz",
      "3,4 Ghz Quadcore",
      "3,4 GHz Intel Core i5 Prozessor mit 4 Kernen"
    ]
  },
  {
    "value": "3,5 GHz_Intel Core i5_4",
    "synonyms": [
      "Quadcore 3,5 Ghz",
      "3,5 Ghz Quadcore",
      "3,5 GHz Intel Core i5 Prozessor mit 4 Kernen"
    ]
  },
  {
    "value": "3,5 GHz_Intel Xeon E5_6",
    "synonyms": [
      "Hexacore 3,5 Ghz",
      "3,5 Ghz Hexacore",
      "3,5 GHz Intel Xeon E5 Prozessor mit 6 Kernen"
    ]
  },
  {
    "value": "3,6 GHz_Intel Core i3_4",
    "synonyms": [
      "Quadcore 3,6 Ghz",
      "3,6 Ghz Quadcore",
      "3,6 GHz Intel Core i3 Prozessor mit 4 Kernen",
      "3,6 GHz Intel Core i7 Prozessor mit 4 Kernen"
    ]
  },
  {
    "value": "3,8 GHz_Intel Core i5_4",
    "synonyms": [
      "Quadcore 3,8 Ghz",
      "3,8 Ghz Quadcore",
      "3,8 GHz Intel Core i5 Prozessor mit 4 Kernen"
    ]
  },
  {
    "value": "4,2 GHz_Intel Core i7_4",
    "synonyms": [
      "Quadcore 4,2 Ghz",
      "4,2 Ghz Quadcore",
      "4,2 GHz Intel Core i7 Prozessor mit 4 Kernen"
    ]
  },
  {
    "value": "3,6 GHz_Intel Core i7_4",
    "synonyms": [
      "3,6 GHz Intel Core i7 Prozessor mit 4 Kernen"
    ]
  }
]