[
  {
    "value": "32",
    "synonyms": [
      "32",
      "32 GB",
      "32 Gigabyte"
    ]
  },
  {
    "value": "16",
    "synonyms": [
      "16",
      "16 GB",
      "16 Gigabyte"
    ]
  },
  {
    "value": "64",
    "synonyms": [
      "64",
      "64 GB",
      "64 Gigabyte"
    ]
  },
  {
    "value": "128",
    "synonyms": [
      "128",
      "128 GB",
      "128 Gigabyte"
    ]
  },
  {
    "value": "256",
    "synonyms": [
      "256",
      "256 GB",
      "256 Gigabyte"
    ]
  },
  {
    "value": "512",
    "synonyms": [
      "512",
      "512 GB",
      "512 Gigabyte"
    ]
  },
  {
    "value": "1",
    "synonyms": [
      "1 TB",
      "1 Terrabyte",
      "1TB"
    ]
  },
  {
    "value": "1.5",
    "synonyms": [
      "1.5 TB",
      "1,5 TB",
      "1.5TB",
      "1,5TB",
      "1,5 Terrabyte",
      "1.5 Terrabyte"
    ]
  },
  {
    "value": "2",
    "synonyms": [
      "2 TB",
      "2TB",
      "2 Terrabyte"
    ]
  },
  {
    "value": "3",
    "synonyms": [
      "3 TB",
      "3 Terrabyte",
      "3TB"
    ]
  },
  {
    "value": "4",
    "synonyms": [
      "4TB",
      "4 TB",
      "4 Terrabyte"
    ]
  },
  {
    "value": "1024",
    "synonyms": [
      "1024",
      "1024 GB",
      "1024 Gigabyte"
    ]
  }
]